heartrate,time,subject
84.2697,0.0,A
84.2697,0.5,A
84.0619,1.0,A
85.6542,1.5,A
87.2093,2.0,A
87.1246,2.5,A
86.8726,3.0,A
86.7052,3.5,A
87.5899,4.0,A
89.1475,4.5,A
89.8204,5.0,A
89.8204,5.5,A
90.4375,6.0,A
91.7605,6.5,A
93.1081,7.0,A
94.3291,7.5,A
95.8003,8.0,A
97.5119,8.5,A
98.7457,9.0,A
98.904,9.5,A
98.3437,10.0,A
98.3075,10.5,A
98.8313,11.0,A
99.0789,11.5,A
98.8157,12.0,A
98.2998,12.5,A
97.7311,13.0,A
97.6471,13.5,A
97.7922,14.0,A
97.2974,14.5,A
96.2042,15.0,A
95.2318,15.5,A
94.9367,16.0,A
95.0867,16.5,A
95.389,17.0,A
95.5414,17.5,A
95.2439,18.0,A
94.9415,18.5,A
95.3557,19.0,A
96.3423,19.5,A
97.1563,20.0,A
97.4026,20.5,A
96.7028,21.0,A
96.5516,21.5,A
97.9837,22.0,A
98.9879,22.5,A
97.6312,23.0,A
95.4064,23.5,A
93.8603,24.0,A
93.0552,24.5,A
94.6012,25.0,A
95.8476,25.5,A
95.7692,26.0,A
95.9236,26.5,A
95.7692,27.0,A
95.9211,27.5,A
95.8501,28.0,A
94.6703,28.5,A
93.0993,29.0,A
91.97200000000001,29.5,A
91.7821,30.0,A
91.7911,30.5,A
90.807,31.0,A
89.3196,31.5,A
88.1511,32.0,A
88.7762,32.5,A
90.2265,33.0,A
90.8066,33.5,A
91.2284,34.0,A
92.4238,34.5,A
93.243,35.0,A
92.8472,35.5,A
92.5926,36.0,A
91.7778,36.5,A
91.2974,37.0,A
91.6364,37.5,A
91.2952,38.0,A
91.771,38.5,A
93.2285,39.0,A
93.3199,39.5,A
91.8799,40.0,A
91.2239,40.5,A
92.4055,41.0,A
93.8716,41.5,A
94.5825,42.0,A
94.5594,42.5,A
94.9453,43.0,A
96.2412,43.5,A
96.6879,44.0,A
95.8295,44.5,A
94.7819,45.0,A
93.4731,45.5,A
92.7997,46.0,A
92.963,46.5,A
92.6996,47.0,A
91.9648,47.5,A
91.2417,48.0,A
91.9312,48.5,A
93.9548,49.0,A
95.3044,49.5,A
95.2511,50.0,A
94.5358,50.5,A
93.8093,51.0,A
93.2287,51.5,A
92.2065,52.0,A
92.1588,52.5,A
93.6376,53.0,A
94.899,53.5,A
95.1592,54.0,A
95.2415,54.5,A
95.5414,55.0,A
95.0971,55.5,A
94.52799999999999,56.0,A
95.5887,56.5,A
96.4715,57.0,A
96.6158,57.5,A
97.0769,58.0,A
96.8531,58.5,A
96.3947,59.0,A
97.4291,59.5,A
98.1767,60.0,A
97.0148,60.5,A
96.044,61.0,A
95.9581,61.5,A
96.4814,62.0,A
96.5211,62.5,A
95.3629,63.0,A
93.5741,63.5,A
92.07700000000001,64.0,A
90.4094,64.5,A
90.1751,65.0,A
91.3312,65.5,A
91.2883,66.0,A
89.0592,66.5,A
87.052,67.0,A
86.6226,67.5,A
85.7889,68.0,A
85.6348,68.5,A
85.3911,69.0,A
83.8064,69.5,A
82.8729,70.0,A
82.6266,70.5,A
82.645,71.0,A
82.645,71.5,A
82.645,72.0,A
82.645,72.5,A
82.645,73.0,A
82.645,73.5,A
82.645,74.0,A
82.645,74.5,A
82.645,75.0,A
95.0292,75.5,A
95.6378,76.0,A
95.3338,76.5,A
94.6154,77.0,A
94.71700000000001,77.5,A
94.4172,78.0,A
93.071,78.5,A
92.4772,79.0,A
92.7607,79.5,A
92.30799999999999,80.0,A
92.0245,80.5,A
91.0371,81.0,A
90.0865,81.5,A
90.1796,82.0,A
90.0281,82.5,A
90.5564,83.0,A
91.7077,83.5,A
92.4405,84.0,A
92.963,84.5,A
93.4589,85.0,A
93.75,85.5,A
94.2788,86.0,A
95.6006,86.5,A
96.8981,87.0,A
97.4026,87.5,A
97.6343,88.0,A
98.1152,88.5,A
98.7137,89.0,A
99.5611,89.5,A
100.365,90.0,A
100.671,90.5,A
100.435,91.0,A
99.6052,91.5,A
98.4364,92.0,A
97.6318,92.5,A
97.4026,93.0,A
96.6432,93.5,A
96.412,94.0,A
97.5981,94.5,A
98.3932,95.0,A
97.9665,95.5,A
95.0147,96.0,A
92.0,96.5,A
91.2143,97.0,A
91.2594,97.5,A
92.2747,98.0,A
92.9359,98.5,A
92.795,99.0,A
93.0328,99.5,A
93.8005,100.0,A
95.0726,100.5,A
96.5076,101.0,A
97.6244,101.5,A
98.0753,102.0,A
98.3978,102.5,A
99.5744,103.0,A
100.568,103.5,A
101.20100000000001,104.0,A
101.99600000000001,104.5,A
101.75200000000001,105.0,A
100.95700000000001,105.5,A
100.02600000000001,106.0,A
99.6107,106.5,A
99.7351,107.0,A
98.9231,107.5,A
97.2177,108.0,A
96.4963,108.5,A
96.5062,109.0,A
96.5806,109.5,A
97.4089,110.0,A
98.2353,110.5,A
98.3075,111.0,A
98.0392,111.5,A
97.81,112.0,A
97.3384,112.5,A
96.8581,113.0,A
96.3871,113.5,A
97.0965,114.0,A
98.54299999999999,114.5,A
99.571,115.0,A
100.383,115.5,A
100.54799999999999,116.0,A
99.8818,116.5,A
96.8987,117.0,A
95.0382,117.5,A
96.0268,118.0,A
96.6055,118.5,A
96.7742,119.0,A
96.4715,119.5,A
95.7183,120.0,A
94.9637,120.5,A
94.7937,121.0,A
96.1652,121.5,A
97.7082,122.0,A
98.0265,122.5,A
98.2043,123.0,A
98.6236,123.5,A
99.1664,124.0,A
100.06299999999999,124.5,A
102.23700000000001,125.0,A
104.256,125.5,A
104.368,126.0,A
103.428,126.5,A
102.71600000000001,127.0,A
103.304,127.5,A
103.37299999999999,128.0,A
100.82600000000001,128.5,A
98.56299999999999,129.0,A
98.2895,129.5,A
98.1599,130.0,A
97.0303,130.5,A
95.5209,131.0,A
94.4763,131.5,A
94.4791,132.0,A
95.7819,132.5,A
97.3151,133.0,A
97.3915,133.5,A
97.7791,134.0,A
99.0609,134.5,A
99.2175,135.0,A
98.9404,135.5,A
99.0606,136.0,A
98.7248,136.5,A
96.3218,137.0,A
93.4816,137.5,A
91.8813,138.0,A
90.8463,138.5,A
92.4127,139.0,A
94.2124,139.5,A
92.4513,140.0,A
92.4513,140.5,A
92.4513,141.0,A
92.4513,141.5,A
89.9078,142.0,A
93.5217,142.5,A
97.4854,143.0,A
99.4921,143.5,A
99.4464,144.0,A
98.7744,144.5,A
96.5739,145.0,A
96.1598,145.5,A
97.6346,146.0,A
97.9628,146.5,A
97.8419,147.0,A
97.2094,147.5,A
96.7742,148.0,A
98.1161,148.5,A
100.156,149.0,A
100.95,149.5,A
100.946,150.0,A
101.098,150.5,A
101.351,151.0,A
101.351,151.5,A
100.185,152.0,A
98.3766,152.5,A
97.4133,153.0,A
96.6234,153.5,A
95.8476,154.0,A
94.875,154.5,A
93.8442,155.0,A
93.3238,155.5,A
93.1677,156.0,A
92.9124,156.5,A
92.795,157.0,A
92.963,157.5,A
92.7997,158.0,A
93.4731,158.5,A
94.3396,159.0,A
94.6184,159.5,A
95.28299999999999,160.0,A
95.9113,160.5,A
95.8599,161.0,A
95.9876,161.5,A
96.5917,162.0,A
96.5684,162.5,A
95.6497,163.0,A
95.5209,163.5,A
95.9115,164.0,A
95.2212,164.5,A
94.2373,165.0,A
93.75,165.5,A
93.2315,166.0,A
92.4824,166.5,A
92.8411,167.0,A
95.1926,167.5,A
95.1926,168.0,A
95.1926,168.5,A
95.1926,169.0,A
95.1926,169.5,A
95.1926,170.0,A
95.1926,170.5,A
95.1926,171.0,A
95.1926,171.5,A
95.1926,172.0,A
95.1926,172.5,A
104.29899999999999,173.0,A
102.93299999999999,173.5,A
102.698,174.0,A
101.647,174.5,A
98.3221,175.0,A
96.6484,175.5,A
97.8146,176.0,A
98.79700000000001,176.5,A
98.6411,177.0,A
96.5556,177.5,A
93.9147,178.0,A
92.4174,178.5,A
92.0825,179.0,A
93.2812,179.5,A
92.3664,180.0,A
90.1977,180.5,A
89.9113,181.0,A
89.8204,181.5,A
90.3604,182.0,A
90.7207,182.5,A
89.6519,183.0,A
87.2386,183.5,A
85.2571,184.0,A
85.9714,184.5,A
88.2143,185.0,A
89.2857,185.5,A
87.7857,186.0,A
86.6695,186.5,A
87.9053,187.0,A
88.7574,187.5,A
89.7532,188.0,A
90.8726,188.5,A
90.3864,189.0,A
87.0231,189.5,A
83.49600000000001,190.0,A
82.9967,190.5,A
85.7531,191.0,A
87.3753,191.5,A
86.2487,192.0,A
85.8621,192.5,A
85.9744,193.0,A
87.5862,193.5,A
89.39399999999999,194.0,A
89.2899,194.5,A
89.5466,195.0,A
90.5282,195.5,A
91.0023,196.0,A
91.6818,196.5,A
92.9149,197.0,A
94.4236,197.5,A
95.0212,198.0,A
94.5112,198.5,A
93.6224,199.0,A
93.4402,199.5,A
92.7995,200.0,A
91.125,200.5,A
89.8247,201.0,A
91.2112,201.5,A
93.5647,202.0,A
94.4258,202.5,A
95.0425,203.0,A
94.4881,203.5,A
93.75,204.0,A
93.9316,204.5,A
94.5385,205.0,A
95.4434,205.5,A
94.8365,206.0,A
93.2778,206.5,A
92.4055,207.0,A
91.5635,207.5,A
90.471,208.0,A
90.5367,208.5,A
91.5154,209.0,A
91.35,209.5,A
89.3208,210.0,A
88.1802,210.5,A
89.1291,211.0,A
90.2812,211.5,A
92.0564,212.0,A
92.9032,212.5,A
91.9195,213.0,A
90.166,213.5,A
87.6693,214.0,A
88.0848,214.5,A
90.641,215.0,A
91.9066,215.5,A
93.1219,216.0,A
93.1759,216.5,A
92.2043,217.0,A
91.1155,217.5,A
89.5742,218.0,A
88.2217,218.5,A
88.9623,219.0,A
91.1344,219.5,A
92.6341,220.0,A
93.4775,220.5,A
93.9811,221.0,A
94.7404,221.5,A
95.96,222.0,A
97.4116,222.5,A
99.7615,223.0,A
101.351,223.5,A
101.12299999999999,224.0,A
99.9982,224.5,A
97.8726,225.0,A
95.4913,225.5,A
92.6655,226.0,A
90.5932,226.5,A
89.6715,227.0,A
88.4337,227.5,A
89.2376,228.0,A
91.185,228.5,A
91.5465,229.0,A
90.9202,229.5,A
90.3614,230.0,A
90.3614,230.5,A
90.4556,231.0,A
90.7428,231.5,A
91.4802,232.0,A
92.229,232.5,A
92.5131,233.0,A
92.5926,233.5,A
92.5926,234.0,A
92.8318,234.5,A
93.9316,235.0,A
95.473,235.5,A
95.7212,236.0,A
95.7212,236.5,A
95.7212,237.0,A
95.7212,237.5,A
95.7212,238.0,A
95.7212,238.5,A
95.7212,239.0,A
95.7212,239.5,A
95.7212,240.0,A
78.5878,240.5,A
80.6419,241.0,A
82.7255,241.5,A
84.3797,242.0,A
84.4015,242.5,A
83.8636,243.0,A
84.61399999999999,243.5,A
82.012,244.0,A
79.5961,244.5,A
80.9197,245.0,A
82.6967,245.5,A
83.5211,246.0,A
83.0931,246.5,A
83.1381,247.0,A
82.84700000000001,247.5,A
82.1639,248.0,A
81.9672,248.5,A
82.8698,249.0,A
84.281,249.5,A
85.25200000000001,250.0,A
87.4286,250.5,A
89.37899999999999,251.0,A
89.6429,251.5,A
89.4782,252.0,A
88.5526,252.5,A
87.3399,253.0,A
86.5774,253.5,A
86.4999,254.0,A
86.9048,254.5,A
87.9264,255.0,A
89.9372,255.5,A
92.1468,256.0,A
92.7059,256.5,A
91.0494,257.0,A
88.8935,257.5,A
88.609,258.0,A
87.8714,258.5,A
86.2799,259.0,A
86.402,259.5,A
86.4541,260.0,A
86.8316,260.5,A
88.0487,261.0,A
89.2307,261.5,A
88.3874,262.0,A
86.6963,262.5,A
86.5061,263.0,A
87.6658,263.5,A
88.9666,264.0,A
89.4717,264.5,A
90.0,265.0,A
89.759,265.5,A
88.8782,266.0,A
88.2456,266.5,A
87.8337,267.0,A
86.9268,267.5,A
85.7276,268.0,A
84.9399,268.5,A
84.4506,269.0,A
84.8591,269.5,A
85.6838,270.0,A
86.0937,270.5,A
87.5128,271.0,A
89.1146,271.5,A
90.1118,272.0,A
91.6609,272.5,A
92.2972,273.0,A
91.818,273.5,A
91.3039,274.0,A
90.7051,274.5,A
90.6616,275.0,A
90.6966,275.5,A
89.9465,276.0,A
88.7994,276.5,A
87.9546,277.0,A
88.2832,277.5,A
89.0664,278.0,A
89.2773,278.5,A
89.0131,279.0,A
87.8902,279.5,A
86.615,280.0,A
86.2069,280.5,A
86.8845,281.0,A
87.7769,281.5,A
88.0702,282.0,A
87.934,282.5,A
87.1143,283.0,A
86.8784,283.5,A
88.0322,284.0,A
89.3186,284.5,A
89.2497,285.0,A
88.2725,285.5,A
87.5376,286.0,A
86.2341,286.5,A
86.1094,287.0,A
87.4868,287.5,A
87.6115,288.0,A
87.6402,288.5,A
88.0294,289.0,A
87.7412,289.5,A
86.6045,290.0,A
86.7976,290.5,A
88.4143,291.0,A
89.1041,291.5,A
88.49,292.0,A
87.3907,292.5,A
86.9502,293.0,A
87.0238,293.5,A
86.7642,294.0,A
85.5504,294.5,A
84.0837,295.0,A
83.8277,295.5,A
85.1986,296.0,A
86.8666,296.5,A
88.1815,297.0,A
88.5214,297.5,A
88.2604,298.0,A
88.2833,298.5,A
88.5444,299.0,A
87.6964,299.5,A
86.0997,300.0,A
85.1549,300.5,A
84.7458,301.0,A
84.601,301.5,A
84.4511,302.0,A
84.8366,302.5,A
84.4924,303.0,A
83.5455,303.5,A
83.3333,304.0,A
83.9661,304.5,A
84.9048,305.0,A
85.5223,305.5,A
86.5216,306.0,A
86.5116,306.5,A
85.1722,307.0,A
83.7017,307.5,A
82.4889,308.0,A
82.4781,308.5,A
83.5605,309.0,A
84.4982,309.5,A
84.4787,310.0,A
83.9374,310.5,A
83.0309,311.0,A
83.0251,311.5,A
83.9511,312.0,A
84.2697,312.5,A
84.462,313.0,A
85.0841,313.5,A
86.1177,314.0,A
87.7395,314.5,A
89.2835,315.0,A
89.9091,315.5,A
89.6472,316.0,A
89.5488,316.5,A
89.6429,317.0,A
89.5433,317.5,A
89.9871,318.0,A
90.3614,318.5,A
90.1861,319.0,A
89.6683,319.5,A
88.7806,320.0,A
87.9897,320.5,A
88.0348,321.0,A
88.4809,321.5,A
88.4358,322.0,A
87.788,322.5,A
87.0264,323.0,A
86.5921,323.5,A
87.6148,324.0,A
89.5664,324.5,A
90.4071,325.0,A
90.2084,325.5,A
90.7208,326.0,A
91.4634,326.5,A
91.4634,327.0,A
91.2892,327.5,A
90.2003,328.0,A
88.4385,328.5,A
87.8571,329.0,A
88.73,329.5,A
89.5787,330.0,A
89.6172,330.5,A
89.4611,331.0,A
89.6217,331.5,A
89.2464,332.0,A
89.9466,332.5,A
91.4612,333.0,A
91.6883,333.5,A
92.0912,334.0,A
92.3608,334.5,A
92.6695,335.0,A
94.0669,335.5,A
95.8491,336.0,A
97.4067,336.5,A
98.0392,337.0,A
97.6901,337.5,A
96.7709,338.0,A
95.4989,338.5,A
93.4107,339.0,A
91.8158,339.5,A
91.4155,340.0,A
91.0055,340.5,A
90.3038,341.0,A
89.6129,341.5,A
88.8971,342.0,A
87.8873,342.5,A
88.8736,343.0,A
90.1645,343.5,A
89.6856,344.0,A
89.0598,344.5,A
88.2176,345.0,A
87.0456,345.5,A
86.38600000000001,346.0,A
87.3176,346.5,A
88.9581,347.0,A
89.2941,347.5,A
88.6277,348.0,A
88.5527,348.5,A
89.4503,349.0,A
90.6981,349.5,A
91.6387,350.0,A
92.0245,350.5,A
90.7537,351.0,A
89.5404,351.5,A
89.7092,352.0,A
89.8204,352.5,A
90.0671,353.0,A
89.7168,353.5,A
88.4504,354.0,A
86.9939,354.5,A
86.8361,355.0,A
87.8331,355.5,A
88.5088,356.0,A
89.0511,356.5,A
89.491,357.0,A
89.7583,357.5,A
89.8992,358.0,A
90.7208,358.5,A
91.9061,359.0,A
92.4706,359.5,A
92.3784,360.0,A
91.2628,360.5,A
91.0799,361.0,A
91.5991,361.5,A
91.1545,362.0,A
90.9091,362.5,A
89.9193,363.0,A
88.8435,363.5,A
89.0496,364.0,A
90.4027,364.5,A
90.0043,365.0,A
87.7045,365.5,A
86.3245,366.0,A
85.9961,366.5,A
87.1659,367.0,A
88.4411,367.5,A
88.7701,368.0,A
89.0342,368.5,A
89.2857,369.0,A
89.1906,369.5,A
88.9307,370.0,A
89.2931,370.5,A
89.8204,371.0,A
89.5541,371.5,A
88.7615,372.0,A
88.4901,372.5,A
89.0828,373.0,A
89.7773,373.5,A
90.5215,374.0,A
90.1234,374.5,A
89.6473,375.0,A
90.1592,375.5,A
90.3614,376.0,A
89.5851,376.5,A
88.7831,377.0,A
88.6885,377.5,A
88.4274,378.0,A
89.1963,378.5,A
90.1036,379.0,A
89.8075,379.5,A
89.1613,380.0,A
88.07,380.5,A
87.9644,381.0,A
89.2791,381.5,A
90.4605,382.0,A
90.9091,382.5,A
90.7623,383.0,A
90.5455,383.5,A
90.6922,384.0,A
91.4044,384.5,A
91.7982,385.0,A
91.1411,385.5,A
89.4103,386.0,A
88.4734,386.5,A
88.7344,387.0,A
88.8679,387.5,A
89.3994,388.0,A
89.5873,388.5,A
89.0426,389.0,A
88.5714,389.5,A
88.8487,390.0,A
89.2857,390.5,A
89.414,391.0,A
89.6048,391.5,A
89.2123,392.0,A
89.3926,392.5,A
90.3217,393.0,A
90.8835,393.5,A
91.8721,394.0,A
92.5926,394.5,A
91.8275,395.0,A
90.3836,395.5,A
89.4953,396.0,A
89.0554,396.5,A
88.9286,397.0,A
89.1589,397.5,A
89.2857,398.0,A
89.961,398.5,A
91.3509,399.0,A
92.5522,399.5,A
92.8157,400.0,A
92.8594,400.5,A
92.7812,401.0,A
92.6192,401.5,A
93.5335,402.0,A
93.7162,402.5,A
93.1677,403.0,A
93.3098,403.5,A
93.3055,404.0,A
92.0341,404.5,A
91.4044,405.0,A
92.6381,405.5,A
94.3359,406.0,A
96.3489,406.5,A
97.4026,407.0,A
96.8731,407.5,A
95.8836,408.0,A
95.2817,408.5,A
95.3406,409.0,A
95.5414,409.5,A
95.2923,410.0,A
94.3336,410.5,A
92.8138,411.0,A
91.1825,411.5,A
90.8772,412.0,A
91.7805,412.5,A
92.1951,413.0,A
91.8212,413.5,A
90.0888,414.0,A
88.7574,414.5,A
88.9232,415.0,A
89.4547,415.5,A
88.5462,416.0,A
87.0894,416.5,A
87.0277,417.0,A
87.9529,417.5,A
88.9856,418.0,A
89.3888,418.5,A
89.6429,419.0,A
89.5038,419.5,A
89.0638,420.0,A
88.9286,420.5,A
89.2279,421.0,A
89.90100000000001,421.5,A
89.494,422.0,A
88.197,422.5,A
87.5088,423.0,A
87.4847,423.5,A
88.4673,424.0,A
89.5178,424.5,A
89.7783,425.0,A
88.7278,425.5,A
87.5479,426.0,A
87.7595,426.5,A
89.2519,427.0,A
90.6265,427.5,A
90.3744,428.0,A
89.4911,428.5,A
88.9413,429.0,A
89.2634,429.5,A
89.9615,430.0,A
90.0266,430.5,A
89.3284,431.0,A
88.2716,431.5,A
87.6077,432.0,A
87.5701,432.5,A
88.7655,433.0,A
90.7637,433.5,A
91.8658,434.0,A
92.2385,434.5,A
93.1012,435.0,A
95.2137,435.5,A
97.6589,436.0,A
98.8192,436.5,A
99.0411,437.0,A
99.57700000000001,437.5,A
100.37,438.0,A
101.296,438.5,A
101.23,439.0,A
100.632,439.5,A
101.28200000000001,440.0,A
102.162,440.5,A
101.91799999999999,441.0,A
102.4,441.5,A
102.28200000000001,442.0,A
100.89299999999999,442.5,A
100.82600000000001,443.0,A
101.166,443.5,A
101.292,444.0,A
100.616,444.5,A
99.706,445.0,A
98.7169,445.5,A
98.294,446.0,A
99.04,446.5,A
98.7765,447.0,A
98.0392,447.5,A
98.2972,448.0,A
97.5254,448.5,A
95.3411,449.0,A
93.3965,449.5,A
92.887,450.0,A
94.4949,450.5,A
95.2611,451.0,A
93.6464,451.5,A
92.5926,452.0,A
91.0979,452.5,A
90.2113,453.0,A
90.8709,453.5,A
89.3208,454.0,A
87.7193,454.5,A
87.7193,455.0,A
87.7193,455.5,A
87.7193,456.0,A
87.7193,456.5,A
87.7193,457.0,A
81.3612,457.5,A
83.0021,458.0,A
85.316,458.5,A
88.7399,459.0,A
91.2032,459.5,A
92.125,460.0,A
93.2808,460.5,A
95.3589,461.0,A
97.5611,461.5,A
99.749,462.0,A
101.791,462.5,A
102.42200000000001,463.0,A
102.89299999999999,463.5,A
103.057,464.0,A
102.09,464.5,A
100.88799999999999,465.0,A
100.353,465.5,A
100.163,466.0,A
99.3671,466.5,A
99.05799999999999,467.0,A
99.9618,467.5,A
100.132,468.0,A
99.6859,468.5,A
99.6253,469.0,A
99.2,469.5,A
99.4211,470.0,A
100.309,470.5,A
100.64399999999999,471.0,A
100.491,471.5,A
100.156,472.0,A
100.0,472.5,A
100.0,473.0,A
100.314,473.5,A
100.90299999999999,474.0,A
100.88600000000001,474.5,A
100.79,475.0,A
102.0,475.5,A
103.605,476.0,A
104.545,476.5,A
104.24700000000001,477.0,A
103.788,477.5,A
104.941,478.0,A
106.524,478.5,A
106.756,479.0,A
105.27799999999999,479.5,A
102.758,480.0,A
100.665,480.5,A
98.9403,481.0,A
98.0158,481.5,A
98.0662,482.0,A
97.1842,482.5,A
95.0685,483.0,A
93.2593,483.5,A
93.6635,484.0,A
95.7407,484.5,A
97.8911,485.0,A
99.7651,485.5,A
100.976,486.0,A
101.316,486.5,A
101.905,487.0,A
102.823,487.5,A
102.89399999999999,488.0,A
102.32,488.5,A
102.041,489.0,A
102.63799999999999,489.5,A
103.34100000000001,490.0,A
103.63799999999999,490.5,A
103.86200000000001,491.0,A
103.67200000000001,491.5,A
103.448,492.0,A
103.448,492.5,A
103.448,493.0,A
103.18799999999999,493.5,A
102.833,494.0,A
102.6,494.5,A
102.40799999999999,495.0,A
102.925,495.5,A
103.83,496.0,A
103.516,496.5,A
102.803,497.0,A
102.538,497.5,A
102.329,498.0,A
102.61200000000001,498.5,A
103.228,499.0,A
104.22399999999999,499.5,A
105.585,500.0,A
105.443,500.5,A
104.624,501.0,A
104.76700000000001,501.5,A
104.507,502.0,A
103.36200000000001,502.5,A
102.31200000000001,503.0,A
101.345,503.5,A
100.95100000000001,504.0,A
101.291,504.5,A
101.196,505.0,A
101.037,505.5,A
101.506,506.0,A
101.666,506.5,A
101.979,507.0,A
102.416,507.5,A
102.133,508.0,A
101.77799999999999,508.5,A
101.292,509.0,A
101.887,509.5,A
102.029,510.0,A
101.066,510.5,A
99.0635,511.0,A
96.2087,511.5,A
94.7408,512.0,A
94.67399999999999,512.5,A
94.9367,513.0,A
95.1157,513.5,A
94.8272,514.0,A
93.2012,514.5,A
92.3177,515.0,A
93.0185,515.5,A
94.0057,516.0,A
94.9937,516.5,A
95.1786,517.0,A
93.8397,517.5,A
93.038,518.0,A
93.9744,518.5,A
95.3165,519.0,A
95.4771,519.5,A
94.9367,520.0,A
93.7606,520.5,A
91.82,521.0,A
91.2594,521.5,A
90.6813,522.0,A
89.6951,522.5,A
88.9027,523.0,A
87.0143,523.5,A
87.7404,524.0,A
90.064,524.5,A
90.3614,525.0,A
90.3614,525.5,A
90.1212,526.0,A
90.459,526.5,A
91.3925,527.0,A
91.3285,527.5,A
90.655,528.0,A
88.2727,528.5,A
88.2727,529.0,A
88.2727,529.5,A
88.2727,530.0,A
85.4585,530.5,A
86.5278,531.0,A
86.0372,531.5,A
85.1788,532.0,A
84.9255,532.5,A
85.5348,533.0,A
87.8245,533.5,A
90.3808,534.0,A
91.7086,534.5,A
92.6327,535.0,A
92.7242,535.5,A
92.2866,536.0,A
92.4426,536.5,A
92.5926,537.0,A
91.8519,537.5,A
90.7053,538.0,A
90.0,538.5,A
89.4932,539.0,A
88.3721,539.5,A
85.6797,540.0,A
82.3256,540.5,A
83.9797,541.0,A
83.9797,541.5,A
83.9797,542.0,A
83.9797,542.5,A
83.9797,543.0,A
83.9797,543.5,A
83.9797,544.0,A
83.9797,544.5,A
83.9797,545.0,A
83.9797,545.5,A
100.40100000000001,546.0,A
101.351,546.5,A
101.829,547.0,A
101.639,547.5,A
99.6575,548.0,A
97.2295,548.5,A
95.82799999999999,549.0,A
95.0559,549.5,A
94.7771,550.0,A
95.4352,550.5,A
96.2817,551.0,A
95.5082,551.5,A
91.9956,552.0,A
88.5296,552.5,A
86.8362,553.0,A
88.0425,553.5,A
90.5698,554.0,A
92.2194,554.5,A
94.131,555.0,A
95.9584,555.5,A
96.5037,556.0,A
96.1935,556.5,A
96.2705,557.0,A
96.4968,557.5,A
96.074,558.0,A
93.2622,558.5,A
89.2552,559.0,A
86.1426,559.5,A
83.3625,560.0,A
81.9672,560.5,A
82.065,561.0,A
82.5179,561.5,A
84.5381,562.0,A
87.0097,562.5,A
88.3409,563.0,A
90.1645,563.5,A
92.2957,564.0,A
93.1798,564.5,A
92.8689,565.0,A
92.2654,565.5,A
91.5516,566.0,A
91.5901,566.5,A
92.7045,567.0,A
93.5287,567.5,A
94.03299999999999,568.0,A
93.9247,568.5,A
92.7893,569.0,A
91.1456,569.5,A
89.5017,570.0,A
87.8392,570.5,A
86.8966,571.0,A
87.5538,571.5,A
89.5294,572.0,A
91.4118,572.5,A
92.0976,573.0,A
91.8634,573.5,A
92.3496,574.0,A
93.8328,574.5,A
95.0143,575.0,A
95.9167,575.5,A
96.5385,576.0,A
96.464,576.5,A
96.6234,577.0,A
97.581,577.5,A
98.3766,578.0,A
98.6002,578.5,A
97.6452,579.0,A
95.245,579.5,A
92.656,580.0,A
91.2376,580.5,A
91.7358,581.0,A
91.045,581.5,A
88.9279,582.0,A
88.0388,582.5,A
87.7193,583.0,A
89.0845,583.5,A
90.9784,584.0,A
91.8316,584.5,A
92.3745,585.0,A
94.2593,585.5,A
96.4695,586.0,A
97.8,586.5,A
99.3794,587.0,A
100.443,587.5,A
101.03299999999999,588.0,A
101.655,588.5,A
102.245,589.0,A
102.63600000000001,589.5,A
102.611,590.0,A
102.066,590.5,A
100.824,591.0,A
99.3474,591.5,A
98.943,592.0,A
98.715,592.5,A
97.5079,593.0,A
96.0414,593.5,A
93.949,594.0,A
93.5115,594.5,A
94.6835,595.0,A
94.8603,595.5,A
94.5617,596.0,A
93.4801,596.5,A
92.2181,597.0,A
92.4062,597.5,A
94.2328,598.0,A
95.2028,598.5,A
94.9367,599.0,A
94.0747,599.5,A
92.7832,600.0,A
92.7607,600.5,A
93.4589,601.0,A
93.3333,601.5,A
92.0536,602.0,A
90.3252,602.5,A
90.4617,603.0,A
91.4634,603.5,A
90.9669,604.0,A
89.7903,604.5,A
88.4148,605.0,A
85.9164,605.5,A
83.7,606.0,A
83.77799999999999,606.5,A
85.7737,607.0,A
87.37,607.5,A
87.5375,608.0,A
88.9871,608.5,A
90.145,609.0,A
89.6279,609.5,A
88.8994,610.0,A
87.3393,610.5,A
87.5077,611.0,A
89.5235,611.5,A
90.5218,612.0,A
90.0455,612.5,A
88.9076,613.0,A
88.2895,613.5,A
87.8844,614.0,A
89.8547,614.5,A
90.8834,615.0,A
89.0927,615.5,A
88.0639,616.0,A
87.7193,616.5,A
86.8272,617.0,A
85.3848,617.5,A
85.0308,618.0,A
86.1942,618.5,A
86.6404,619.0,A
84.9593,619.5,A
85.712,620.0,A
87.6723,620.5,A
88.3041,621.0,A
90.7407,621.5,A
92.5926,622.0,A
92.7789,622.5,A
92.8607,623.0,A
92.3746,623.5,A
91.7283,624.0,A
92.314,624.5,A
93.5941,625.0,A
94.0139,625.5,A
93.2984,626.0,A
92.3381,626.5,A
92.2222,627.0,A
92.7353,627.5,A
93.7247,628.0,A
94.3396,628.5,A
95.255,629.0,A
96.6332,629.5,A
97.6129,630.0,A
99.0918,630.5,A
100.36200000000001,631.0,A
101.279,631.5,A
101.964,632.0,A
101.67399999999999,632.5,A
100.98899999999999,633.0,A
100.471,633.5,A
99.1552,634.0,A
98.949,634.5,A
98.7552,635.0,A
96.9121,635.5,A
95.5816,636.0,A
94.0792,636.5,A
92.1016,637.0,A
92.0427,637.5,A
93.0909,638.0,A
92.0118,638.5,A
90.6265,639.0,A
90.3614,639.5,A
90.889,640.0,A
92.3178,640.5,A
93.4845,641.0,A
92.6023,641.5,A
90.4035,642.0,A
88.5053,642.5,A
87.4337,643.0,A
87.9817,643.5,A
89.0199,644.0,A
89.1995,644.5,A
87.6601,645.0,A
85.4074,645.5,A
84.59899999999999,646.0,A
85.8997,646.5,A
87.4276,647.0,A
86.6124,647.5,A
84.2472,648.0,A
84.2472,648.5,A
84.2472,649.0,A
84.2472,649.5,A
84.2472,650.0,A
78.6536,650.5,A
79.6562,651.0,A
81.1394,651.5,A
82.7807,652.0,A
84.3619,652.5,A
87.2078,653.0,A
89.23700000000001,653.5,A
89.5195,654.0,A
90.3312,654.5,A
89.8677,655.0,A
88.0063,655.5,A
87.0414,656.0,A
88.0911,656.5,A
89.521,657.0,A
90.3878,657.5,A
91.3881,658.0,A
91.333,658.5,A
90.4083,659.0,A
90.6734,659.5,A
92.1826,660.0,A
93.3356,660.5,A
93.4565,661.0,A
92.3546,661.5,A
91.3362,662.0,A
91.2971,662.5,A
91.4634,663.0,A
91.4634,663.5,A
90.5948,664.0,A
88.6265,664.5,A
86.6206,665.0,A
87.1432,665.5,A
88.9109,666.0,A
88.7425,666.5,A
85.1013,667.0,A
81.9672,667.5,A
81.9998,668.0,A
82.4527,668.5,A
84.546,669.0,A
87.2961,669.5,A
88.5653,670.0,A
89.2421,670.5,A
89.9294,671.0,A
90.5234,671.5,A
91.7537,672.0,A
93.4242,672.5,A
93.3198,673.0,A
91.3296,673.5,A
89.2661,674.0,A
89.5829,674.5,A
91.4882,675.0,A
92.2186,675.5,A
92.0078,676.0,A
89.6825,676.5,A
87.5357,677.0,A
86.4565,677.5,A
83.9893,678.0,A
85.2325,678.5,A
87.0735,679.0,A
85.1266,679.5,A
85.6814,680.0,A
87.9651,680.5,A
88.9019,681.0,A
88.8873,681.5,A
87.6985,682.0,A
87.20100000000001,682.5,A
88.1173,683.0,A
88.9118,683.5,A
89.7935,684.0,A
89.6765,684.5,A
88.3208,685.0,A
86.6521,685.5,A
86.3542,686.0,A
87.3479,686.5,A
87.7306,687.0,A
86.0145,687.5,A
85.2927,688.0,A
87.2668,688.5,A
89.2897,689.0,A
88.79799999999999,689.5,A
87.0666,690.0,A
87.1013,690.5,A
88.2948,691.0,A
89.7633,691.5,A
90.0,692.0,A
89.5801,692.5,A
89.6108,693.0,A
90.2994,693.5,A
90.999,694.0,A
91.0714,694.5,A
90.1045,695.0,A
90.0195,695.5,A
90.8312,696.0,A
91.2841,696.5,A
92.7045,697.0,A
92.3523,697.5,A
90.5704,698.0,A
90.09200000000001,698.5,A
90.1796,699.0,A
91.477,699.5,A
92.3926,700.0,A
91.9964,700.5,A
91.6074,701.0,A
91.1619,701.5,A
91.12200000000001,702.0,A
91.7877,702.5,A
92.3337,703.0,A
90.5921,703.5,A
87.9201,704.0,A
87.4514,704.5,A
88.6984,705.0,A
91.0847,705.5,A
92.1454,706.0,A
91.5808,706.5,A
91.5105,707.0,A
91.7911,707.5,A
92.0245,708.0,A
91.8674,708.5,A
91.6564,709.0,A
91.8136,709.5,A
91.7597,710.0,A
91.8359,710.5,A
92.5793,711.0,A
93.3823,711.5,A
94.0613,712.0,A
94.5737,712.5,A
95.0294,713.0,A
95.3963,713.5,A
95.5366,714.0,A
94.9357,714.5,A
95.0073,715.0,A
95.4717,715.5,A
95.06700000000001,716.0,A
95.8198,716.5,A
97.0809,717.0,A
96.7027,717.5,A
96.3891,718.0,A
97.2328,718.5,A
97.2177,719.0,A
95.8334,719.5,A
93.6169,720.0,A
91.756,720.5,A
91.027,721.0,A
90.6002,721.5,A
89.7198,722.0,A
88.8009,722.5,A
88.3343,723.0,A
87.6772,723.5,A
88.5264,724.0,A
90.5949,724.5,A
91.6123,725.0,A
91.1198,725.5,A
89.3574,726.0,A
88.6616,726.5,A
90.0,727.0,A
91.8114,727.5,A
91.3095,728.0,A
89.2076,728.5,A
87.79899999999999,729.0,A
87.2093,729.5,A
88.281,730.0,A
90.1498,730.5,A
91.4458,731.0,A
91.1531,731.5,A
89.4103,732.0,A
87.7363,732.5,A
86.3639,733.0,A
86.9143,733.5,A
88.3293,734.0,A
88.4046,734.5,A
87.485,735.0,A
87.1392,735.5,A
87.7722,736.0,A
88.2046,736.5,A
89.1293,737.0,A
90.2515,737.5,A
90.6666,738.0,A
90.4671,738.5,A
90.0519,739.0,A
90.2602,739.5,A
90.4085,740.0,A
89.6257,740.5,A
88.6849,741.0,A
87.6355,741.5,A
87.1765,742.0,A
87.7867,742.5,A
88.5068,743.0,A
88.4003,743.5,A
87.7996,744.0,A
87.3827,744.5,A
88.6971,745.0,A
90.6126,745.5,A
91.0843,746.0,A
90.7449,746.5,A
89.5787,747.0,A
88.4528,747.5,A
88.3228,748.0,A
89.7225,748.5,A
91.1685,749.0,A
91.1019,749.5,A
90.6497,750.0,A
90.7163,750.5,A
93.1697,751.0,A
93.1697,751.5,A
93.1697,752.0,A
93.1697,752.5,A
93.1697,753.0,A
98.0392,753.5,A
98.3127,754.0,A
98.4314,754.5,A
97.525,755.0,A
95.7277,755.5,A
93.9248,756.0,A
93.1677,756.5,A
93.6701,757.0,A
94.4638,757.5,A
94.5474,758.0,A
94.3396,758.5,A
94.7963,759.0,A
95.3972,759.5,A
95.3193,760.0,A
94.4236,760.5,A
93.4682,761.0,A
93.375,761.5,A
93.8942,762.0,A
94.6635,762.5,A
95.62799999999999,763.0,A
96.1538,763.5,A
96.3524,764.0,A
96.9155,764.5,A
97.7165,765.0,A
98.4185,765.5,A
98.9979,766.0,A
98.8364,766.5,A
97.0679,767.0,A
94.6187,767.5,A
93.0278,768.0,A
92.8663,768.5,A
93.1539,769.0,A
92.8473,769.5,A
91.9952,770.0,A
91.4634,770.5,A
91.88799999999999,771.0,A
92.4526,771.5,A
92.5023,772.0,A
91.9377,772.5,A
91.7013,773.0,A
92.4512,773.5,A
93.4344,774.0,A
94.1226,774.5,A
95.2395,775.0,A
96.3774,775.5,A
96.8531,776.0,A
97.1613,776.5,A
97.0029,777.0,A
96.7742,777.5,A
96.5285,778.0,A
95.4061,778.5,A
93.9985,779.0,A
93.9037,779.5,A
94.6334,780.0,A
94.71700000000001,780.5,A
94.1607,781.0,A
93.3997,781.5,A
92.5047,782.0,A
93.2709,782.5,A
94.3758,783.0,A
94.0841,783.5,A
94.1487,784.0,A
94.6501,784.5,A
95.40899999999999,785.0,A
95.2292,785.5,A
93.9423,786.0,A
93.5287,786.5,A
92.6524,787.0,A
92.25,787.5,A
93.3476,788.0,A
93.8558,788.5,A
95.0577,789.0,A
97.2166,789.5,A
98.2805,790.0,A
98.4202,790.5,A
99.2077,791.0,A
100.949,791.5,A
102.041,792.0,A
101.751,792.5,A
101.86200000000001,793.0,A
101.83200000000001,793.5,A
100.059,794.0,A
97.1287,794.5,A
95.5414,795.0,A
95.5414,795.5,A
96.5285,796.0,A
98.5299,796.5,A
99.9256,797.0,A
101.523,797.5,A
102.74,798.0,A
103.015,798.5,A
103.815,799.0,A
104.445,799.5,A
104.359,800.0,A
103.93,800.5,A
102.523,801.0,A
100.039,801.5,A
99.2108,802.0,A
100.427,802.5,A
102.01700000000001,803.0,A
103.52,803.5,A
103.734,804.0,A
103.734,804.5,A
103.734,805.0,A
103.734,805.5,A
103.734,806.0,A
103.734,806.5,A
103.734,807.0,A
103.734,807.5,A
88.9034,808.0,A
90.5565,808.5,A
92.8345,809.0,A
94.6083,809.5,A
95.8343,810.0,A
96.8482,810.5,A
97.4026,811.0,A
96.7996,811.5,A
95.7505,812.0,A
95.1984,812.5,A
95.6232,813.0,A
95.3556,813.5,A
95.1886,814.0,A
96.29700000000001,814.5,A
96.9806,815.0,A
98.5935,815.5,A
99.6927,816.0,A
100.335,816.5,A
101.10700000000001,817.0,A
100.581,817.5,A
100.60799999999999,818.0,A
101.863,818.5,A
102.057,819.0,A
101.09,819.5,A
98.6351,820.0,A
95.9158,820.5,A
97.0263,821.0,A
98.6842,821.5,A
97.8285,822.0,A
96.075,822.5,A
94.9891,823.0,A
95.2904,823.5,A
96.5911,824.0,A
97.9768,824.5,A
98.1818,825.0,A
97.6077,825.5,A
97.541,826.0,A
98.1818,826.5,A
99.6777,827.0,A
100.4,827.5,A
100.26799999999999,828.0,A
100.54,828.5,A
100.522,829.0,A
99.8712,829.5,A
100.361,830.0,A
101.068,830.5,A
100.09200000000001,831.0,A
98.6369,831.5,A
97.5,832.0,A
97.9049,832.5,A
97.7598,833.0,A
95.0759,833.5,A
93.0363,834.0,A
92.9701,834.5,A
91.5022,835.0,A
90.9403,835.5,A
92.0374,836.0,A
91.9676,836.5,A
92.8354,837.0,A
94.0212,837.5,A
94.125,838.0,A
93.7466,838.5,A
93.3517,839.0,A
93.1677,839.5,A
93.3983,840.0,A
94.148,840.5,A
95.3425,841.0,A
96.7256,841.5,A
98.0588,842.0,A
99.4869,842.5,A
100.69,843.0,A
101.221,843.5,A
101.524,844.0,A
102.21799999999999,844.5,A
102.74,845.0,A
101.49,845.5,A
99.1959,846.0,A
99.1959,846.5,A
99.1959,847.0,A
99.1959,847.5,A
99.1959,848.0,A
99.1959,848.5,A
99.1959,849.0,A
99.1959,849.5,A
99.1959,850.0,A
99.1959,850.5,A
99.1959,851.0,A
99.1959,851.5,A
82.1587,852.0,A
84.4073,852.5,A
85.8818,853.0,A
86.1281,853.5,A
86.2069,854.0,A
87.1156,854.5,A
87.06700000000001,855.0,A
85.0111,855.5,A
82.4968,856.0,A
81.0811,856.5,A
81.1827,857.0,A
81.8509,857.5,A
78.7123,858.0,A
73.4366,858.5,A
73.8118,859.0,A
76.5512,859.5,A
78.355,860.0,A
79.7589,860.5,A
80.3707,861.0,A
80.8348,861.5,A
81.7173,862.0,A
83.2031,862.5,A
84.8835,863.0,A
85.7143,863.5,A
85.8857,864.0,A
85.556,864.5,A
83.7363,865.0,A
83.8154,865.5,A
84.1361,866.0,A
81.4231,866.5,A
79.1957,867.0,A
78.5691,867.5,A
78.53399999999999,868.0,A
80.0584,868.5,A
81.4947,869.0,A
81.0259,869.5,A
81.4747,870.0,A
83.3899,870.5,A
85.5195,871.0,A
85.8953,871.5,A
85.0616,872.0,A
84.5662,872.5,A
83.5546,873.0,A
84.4518,873.5,A
85.0348,874.0,A
82.34200000000001,874.5,A
81.0624,875.0,A
81.2903,875.5,A
80.8731,876.0,A
82.2094,876.5,A
82.7825,877.0,A
81.0877,877.5,A
81.6285,878.0,A
83.4498,878.5,A
84.6325,879.0,A
86.2239,879.5,A
87.0016,880.0,A
86.3185,880.5,A
85.3119,881.0,A
85.4939,881.5,A
86.3644,882.0,A
87.2731,882.5,A
90.0245,883.0,A
92.0245,883.5,A
92.5767,884.0,A
93.65299999999999,884.5,A
94.586,885.0,A
95.2681,885.5,A
94.5444,886.0,A
94.0127,886.5,A
94.5733,887.0,A
93.6306,887.5,A
94.06700000000001,888.0,A
95.0943,888.5,A
94.9216,889.0,A
96.1808,889.5,A
98.9515,890.0,A
101.73899999999999,890.5,A
102.14,891.0,A
101.214,891.5,A
100.946,892.0,A
101.177,892.5,A
101.52,893.0,A
102.928,893.5,A
103.476,894.0,A
103.333,894.5,A
104.024,895.0,A
104.167,895.5,A
104.292,896.0,A
104.583,896.5,A
104.441,897.0,A
103.79,897.5,A
101.62299999999999,898.0,A
99.5679,898.5,A
99.1835,899.0,A
98.8567,899.5,A
60.4839,0.0,B
60.4839,0.5,B
60.4606,1.0,B
60.3391,1.5,B
60.0762,2.0,B
59.2526,2.5,B
58.6644,3.0,B
59.1295,3.5,B
59.6737,4.0,B
60.776,4.5,B
61.5625,5.0,B
60.6983,5.5,B
60.7558,6.0,B
64.6925,6.5,B
69.0724,7.0,B
71.9005,7.5,B
72.0397,8.0,B
69.9949,8.5,B
67.3286,9.0,B
65.0251,9.5,B
64.196,10.0,B
62.906000000000006,10.5,B
61.0068,11.0,B
59.2666,11.5,B
57.7952,12.0,B
56.9915,12.5,B
57.7653,13.0,B
58.2358,13.5,B
57.461999999999996,14.0,B
56.8552,14.5,B
57.5159,15.0,B
58.1395,15.5,B
59.7941,16.0,B
61.4044,16.5,B
59.9769,17.0,B
58.5938,17.5,B
58.4807,18.0,B
58.3667,18.5,B
59.4716,19.0,B
60.6531,19.5,B
59.8142,20.0,B
58.8616,20.5,B
58.3032,21.0,B
57.7376,21.5,B
59.0713,22.0,B
60.7129,22.5,B
59.9371,23.0,B
58.7462,23.5,B
58.88,24.0,B
59.2274,24.5,B
60.9969,25.0,B
63.1322,25.5,B
62.1569,26.0,B
60.6192,26.5,B
59.9292,27.0,B
59.3316,27.5,B
60.5066,28.0,B
61.8541,28.5,B
61.0235,29.0,B
60.0317,29.5,B
59.5427,30.0,B
59.0702,30.5,B
60.1878,31.0,B
61.398,31.5,B
60.8681,32.0,B
60.2508,32.5,B
59.8853,33.0,B
59.5267,33.5,B
61.4931,34.0,B
63.4416,34.5,B
62.7021,35.0,B
61.8881,35.5,B
61.2607,36.0,B
61.0743,36.5,B
63.0375,37.0,B
64.1869,37.5,B
62.7235,38.0,B
61.3585,38.5,B
60.3748,39.0,B
60.123000000000005,39.5,B
61.1067,40.0,B
61.4131,40.5,B
60.6693,41.0,B
59.8359,41.5,B
58.8983,42.0,B
58.4954,42.5,B
58.84,43.0,B
58.7827,43.5,B
57.9908,44.0,B
57.4153,44.5,B
57.1968,45.0,B
57.2415,45.5,B
58.6048,46.0,B
59.761,46.5,B
59.761,47.0,B
59.713,47.5,B
59.36,48.0,B
59.1294,48.5,B
59.8438,49.0,B
60.5134,49.5,B
60.7592,50.0,B
60.6761,50.5,B
58.7054,51.0,B
57.0087,51.5,B
56.4766,52.0,B
55.9701,52.5,B
57.9006,53.0,B
60.036,53.5,B
59.5946,54.0,B
58.8859,54.5,B
58.2339,55.0,B
57.5578,55.5,B
58.2759,56.0,B
59.3021,56.5,B
58.2397,57.0,B
56.5677,57.5,B
56.0478,58.0,B
55.8389,58.5,B
56.3327,59.0,B
57.5214,59.5,B
57.7319,60.0,B
56.751999999999995,60.5,B
56.2391,61.0,B
56.4511,61.5,B
56.8755,62.0,B
58.5736,62.5,B
59.7802,63.0,B
58.4061,63.5,B
57.3096,64.0,B
58.2112,64.5,B
59.0858,65.0,B
60.0461,65.5,B
60.8849,66.0,B
59.4668,66.5,B
58.1395,67.0,B
57.3717,67.5,B
56.6038,68.0,B
58.0981,68.5,B
59.7962,69.0,B
57.0875,69.5,B
53.7779,70.0,B
53.2026,70.5,B
52.9207,71.0,B
53.2363,71.5,B
54.4014,72.0,B
55.0021,72.5,B
54.2143,73.0,B
53.5714,73.5,B
53.1278,74.0,B
52.6579,74.5,B
53.0074,75.0,B
53.5733,75.5,B
54.0187,76.0,B
54.6095,76.5,B
54.7747,77.0,B
54.0879,77.5,B
53.5753,78.0,B
54.0623,78.5,B
54.5455,79.0,B
55.5509,79.5,B
56.7953,80.0,B
56.7335,80.5,B
56.3062,81.0,B
56.5466,81.5,B
57.1923,82.0,B
58.136,82.5,B
59.5208,83.0,B
59.4585,83.5,B
57.8551,84.0,B
56.5946,84.5,B
55.4498,85.0,B
55.0704,85.5,B
56.768,86.0,B
58.0007,86.5,B
56.916000000000004,87.0,B
55.9701,87.5,B
56.927,88.0,B
57.8995,88.5,B
59.0864,89.0,B
60.3708,89.5,B
59.6069,90.0,B
58.6618,90.5,B
58.5938,91.0,B
58.5938,91.5,B
59.7925,92.0,B
61.2334,92.5,B
59.8108,93.0,B
57.9193,93.5,B
57.6039,94.0,B
57.4934,94.5,B
58.202,95.0,B
59.2282,95.5,B
58.7332,96.0,B
57.5972,96.5,B
57.3177,97.0,B
57.4274,97.5,B
58.3052,98.0,B
59.9339,98.5,B
59.9747,99.0,B
58.5678,99.5,B
57.9151,100.0,B
57.9151,100.5,B
58.4185,101.0,B
59.703,101.5,B
60.24,102.0,B
59.6424,102.5,B
60.6485,103.0,B
60.6485,103.5,B
60.6485,104.0,B
60.6485,104.5,B
60.6485,105.0,B
60.6485,105.5,B
60.6485,106.0,B
67.6856,106.5,B
66.6344,107.0,B
64.1643,107.5,B
61.2452,108.0,B
58.8926,108.5,B
56.8621,109.0,B
55.6961,109.5,B
54.7802,110.0,B
55.0272,110.5,B
57.1501,111.0,B
58.5938,111.5,B
58.5938,112.0,B
58.5177,112.5,B
58.1784,113.0,B
58.0373,113.5,B
58.8417,114.0,B
59.4919,114.5,B
59.2576,115.0,B
58.9056,115.5,B
57.4679,116.0,B
56.1798,116.5,B
55.2931,117.0,B
54.3771,117.5,B
55.044,118.0,B
55.9599,118.5,B
55.732,119.0,B
55.0144,119.5,B
54.4091,120.0,B
53.6326,120.5,B
53.5106,121.0,B
55.324,121.5,B
56.7978,122.0,B
56.4785,122.5,B
56.1798,123.0,B
56.1798,123.5,B
56.1798,124.0,B
56.6043,124.5,B
57.1404,125.0,B
58.0425,125.5,B
59.1785,126.0,B
58.7514,126.5,B
57.6154,127.0,B
57.0005,127.5,B
56.5701,128.0,B
56.8412,128.5,B
57.8286,129.0,B
57.6816,129.5,B
55.9713,130.0,B
54.7967,130.5,B
54.1099,131.0,B
53.5714,131.5,B
55.2613,132.0,B
56.9927,132.5,B
56.6617,133.0,B
56.2345,133.5,B
56.1026,134.0,B
55.9978,134.5,B
56.7467,135.0,B
58.0585,135.5,B
59.0418,136.0,B
59.8654,136.5,B
59.661,137.0,B
58.6103,137.5,B
58.0304,138.0,B
57.8068,138.5,B
58.1631,139.0,B
59.3169,139.5,B
59.1779,140.0,B
57.163000000000004,140.5,B
55.6535,141.0,B
54.4542,141.5,B
53.613,142.0,B
55.3444,142.5,B
57.0342,143.0,B
56.354,143.5,B
55.6147,144.0,B
55.63399999999999,144.5,B
55.7373,145.0,B
56.9777,145.5,B
58.9772,146.0,B
59.761,146.5,B
59.761,147.0,B
59.4835,147.5,B
59.0148,148.0,B
59.5554,148.5,B
60.8814,149.0,B
60.6109,149.5,B
59.1701,150.0,B
58.2234,150.5,B
57.5525,151.0,B
57.8785,151.5,B
59.2525,152.0,B
59.129,152.5,B
57.2189,153.0,B
56.2819,153.5,B
56.6011,154.0,B
57.2249,154.5,B
59.1802,155.0,B
60.4024,155.5,B
58.9955,156.0,B
58.0438,156.5,B
58.8481,157.0,B
59.7759,157.5,B
61.5266,158.0,B
62.8091,158.5,B
61.9088,159.0,B
61.4031,159.5,B
62.0408,160.0,B
62.7885,160.5,B
63.5897,161.0,B
63.0432,161.5,B
60.8724,162.0,B
59.3718,162.5,B
58.5611,163.0,B
58.3785,163.5,B
58.953,164.0,B
58.8467,164.5,B
57.7195,165.0,B
57.0972,165.5,B
57.3157,166.0,B
57.797,166.5,B
59.4258,167.0,B
60.4136,167.5,B
59.0068,168.0,B
57.8981,168.5,B
57.7868,169.0,B
57.7668,169.5,B
58.8011,170.0,B
59.6668,170.5,B
58.1954,171.0,B
56.8182,171.5,B
56.0227,172.0,B
55.1872,172.5,B
56.0489,173.0,B
57.211000000000006,173.5,B
56.8123,174.0,B
55.8544,174.5,B
55.4477,175.0,B
55.2435,175.5,B
55.6737,176.0,B
57.17,176.5,B
58.3389,177.0,B
59.031000000000006,177.5,B
59.4918,178.0,B
59.3742,178.5,B
59.3768,179.0,B
59.7325,179.5,B
60.2143,180.0,B
61.0785,180.5,B
61.1829,181.0,B
59.3885,181.5,B
58.2216,182.0,B
58.5636,182.5,B
58.7104,183.0,B
58.1448,183.5,B
57.5035,184.0,B
55.9301,184.5,B
54.5455,185.0,B
55.2008,185.5,B
55.9132,186.0,B
56.8119,186.5,B
57.8966,187.0,B
57.9016,187.5,B
57.5675,188.0,B
57.8215,188.5,B
58.3827,189.0,B
59.9466,189.5,B
62.2953,190.0,B
62.7598,190.5,B
61.9784,191.0,B
61.3605,191.5,B
60.8607,192.0,B
61.6014,192.5,B
62.7496,193.0,B
61.5266,193.5,B
59.7759,194.0,B
59.7759,194.5,B
59.7759,195.0,B
59.7759,195.5,B
59.7759,196.0,B
59.7759,196.5,B
59.7759,197.0,B
68.1561,197.5,B
65.9924,198.0,B
63.8354,198.5,B
64.0985,199.0,B
64.7563,199.5,B
65.6233,200.0,B
65.6696,200.5,B
63.4755,201.0,B
61.79,201.5,B
61.286,202.0,B
61.0796,202.5,B
61.3295,203.0,B
61.0777,203.5,B
60.2204,204.0,B
59.9816,204.5,B
60.4655,205.0,B
61.8744,205.5,B
64.2611,206.0,B
65.0487,206.5,B
64.3489,207.0,B
63.6846,207.5,B
63.1459,208.0,B
64.2304,208.5,B
65.509,209.0,B
63.5289,209.5,B
61.3481,210.0,B
60.0222,210.5,B
58.8565,211.0,B
59.4447,211.5,B
59.9933,212.0,B
59.8738,212.5,B
59.7842,213.0,B
60.2681,213.5,B
60.7832,214.0,B
61.5391,214.5,B
62.6242,215.0,B
65.2877,215.5,B
68.0929,216.0,B
69.5204,216.5,B
71.9423,217.0,B
74.219,217.5,B
74.8015,218.0,B
74.5426,218.5,B
74.3579,219.0,B
72.3716,219.5,B
69.6291,220.0,B
69.6291,220.5,B
69.6291,221.0,B
69.6291,221.5,B
69.6291,222.0,B
69.6291,222.5,B
69.6291,223.0,B
69.6291,223.5,B
57.9088,224.0,B
57.3433,224.5,B
56.6877,225.0,B
57.2663,225.5,B
58.1473,226.0,B
59.4479,226.5,B
61.0027,227.0,B
60.6619,227.5,B
59.5685,228.0,B
58.6343,228.5,B
57.7257,229.0,B
58.2703,229.5,B
59.5347,230.0,B
59.0628,230.5,B
57.5799,231.0,B
56.7533,231.5,B
56.2213,232.0,B
56.4739,232.5,B
57.7857,233.0,B
58.118,233.5,B
56.7022,234.0,B
55.6139,234.5,B
54.8087,235.0,B
54.1516,235.5,B
55.7583,236.0,B
57.4182,236.5,B
57.278999999999996,237.0,B
57.0604,237.5,B
56.6214,238.0,B
56.0893,238.5,B
56.0364,239.0,B
56.1412,239.5,B
56.7784,240.0,B
57.9854,240.5,B
57.7764,241.0,B
55.9521,241.5,B
54.9986,242.0,B
55.2013,242.5,B
55.5173,243.0,B
57.2537,243.5,B
58.7614,244.0,B
57.6515,244.5,B
56.6038,245.0,B
56.5042,245.5,B
56.3978,246.0,B
57.5616,246.5,B
59.0104,247.0,B
57.9877,247.5,B
56.3285,248.0,B
55.6421,248.5,B
55.1296,249.0,B
55.6222,249.5,B
57.1072,250.0,B
57.5017,250.5,B
56.4252,251.0,B
55.508,251.5,B
54.4126,252.0,B
53.5714,252.5,B
54.2527,253.0,B
54.9396,253.5,B
56.2356,254.0,B
57.8329,254.5,B
57.4891,255.0,B
56.6148,255.5,B
56.8604,256.0,B
57.6224,256.5,B
58.4822,257.0,B
59.5246,257.5,B
59.2525,258.0,B
57.8785,258.5,B
57.0591,259.0,B
56.6286,259.5,B
56.5287,260.0,B
56.9592,260.5,B
56.9711,261.0,B
55.7174,261.5,B
54.7709,262.0,B
55.5941,262.5,B
56.391000000000005,263.0,B
57.3866,263.5,B
58.488,264.0,B
58.2079,264.5,B
57.7572,265.0,B
58.1312,265.5,B
58.6968,266.0,B
59.7994,266.5,B
61.1254,267.0,B
60.1677,267.5,B
58.4998,268.0,B
57.5101,268.5,B
56.6358,269.0,B
56.8421,269.5,B
57.6041,270.0,B
57.4094,270.5,B
56.4369,271.0,B
55.6283,271.5,B
54.718999999999994,272.0,B
54.1831,272.5,B
54.38,273.0,B
54.5455,273.5,B
54.9319,274.0,B
55.3345,274.5,B
55.7626,275.0,B
56.2828,275.5,B
56.2513,276.0,B
56.0408,276.5,B
56.6523,277.0,B
57.9641,277.5,B
57.9746,278.0,B
56.6628,278.5,B
55.64,279.0,B
54.6333,279.5,B
54.0724,280.0,B
55.1839,280.5,B
56.1798,281.0,B
55.0103,281.5,B
53.8021,282.0,B
53.4151,282.5,B
52.9418,283.0,B
52.9477,283.5,B
53.2297,284.0,B
53.6157,284.5,B
54.703,285.0,B
55.4947,285.5,B
54.4073,286.0,B
53.3808,286.5,B
53.3043,287.0,B
53.2097,287.5,B
54.0745,288.0,B
55.6743,288.5,B
56.0844,289.0,B
55.3615,289.5,B
54.8734,290.0,B
54.5748,290.5,B
54.3738,291.0,B
55.1849,291.5,B
55.9701,292.0,B
54.8205,292.5,B
53.5258,293.0,B
53.2601,293.5,B
53.0714,294.0,B
53.2563,294.5,B
53.9284,295.0,B
54.2507,295.5,B
53.6725,296.0,B
53.1915,296.5,B
53.6293,297.0,B
54.1094,297.5,B
55.4613,298.0,B
57.343,298.5,B
57.9151,299.0,B
57.9151,299.5,B
58.2297,300.0,B
58.7997,300.5,B
59.5544,301.0,B
60.5147,301.5,B
59.769,302.0,B
57.5831,302.5,B
55.9076,303.0,B
54.2961,303.5,B
53.619,304.0,B
54.9137,304.5,B
55.8924,305.0,B
53.949,305.5,B
52.0833,306.0,B
53.2857,306.5,B
54.9193,307.0,B
56.4026,307.5,B
58.2549,308.0,B
58.6306,308.5,B
57.8387,309.0,B
58.1461,309.5,B
59.6524,310.0,B
60.5407,310.5,B
60.6631,311.0,B
60.2078,311.5,B
59.1403,312.0,B
59.6862,312.5,B
62.169,313.0,B
62.9842,313.5,B
61.9422,314.0,B
61.1051,314.5,B
60.4879,315.0,B
61.0874,315.5,B
62.4795,316.0,B
62.0452,316.5,B
60.653,317.0,B
59.5734,317.5,B
58.6358,318.0,B
58.6684,318.5,B
59.1298,319.0,B
58.1089,319.5,B
56.2424,320.0,B
55.7029,320.5,B
56.015,321.0,B
56.9855,321.5,B
59.3834,322.0,B
60.8404,322.5,B
60.4731,323.0,B
60.2866,323.5,B
60.4081,324.0,B
60.7278,324.5,B
61.3501,325.0,B
61.1296,325.5,B
59.7929,326.0,B
58.9117,326.5,B
58.5671,327.0,B
58.6169,327.5,B
59.3145,328.0,B
59.0208,328.5,B
56.9181,329.0,B
55.4396,329.5,B
54.8357,330.0,B
54.3478,330.5,B
56.2133,331.0,B
58.1092,331.5,B
57.7312,332.0,B
57.2874,332.5,B
57.4334,333.0,B
57.6536,333.5,B
58.7308,334.0,B
60.1266,334.5,B
59.9409,335.0,B
59.2266,335.5,B
58.3195,336.0,B
57.3091,336.5,B
57.7376,337.0,B
58.8647,337.5,B
59.2885,338.0,B
59.2885,338.5,B
58.702,339.0,B
57.6837,339.5,B
57.0453,340.0,B
56.6148,340.5,B
56.62,341.0,B
57.2707,341.5,B
57.5153,342.0,B
56.8647,342.5,B
56.4217,343.0,B
56.6353,343.5,B
56.8729,344.0,B
58.5843,344.5,B
60.2314,345.0,B
59.9914,345.5,B
59.7534,346.0,B
59.5172,346.5,B
59.2943,347.0,B
60.0144,347.5,B
60.7209,348.0,B
60.477,348.5,B
60.19,349.0,B
58.9157,349.5,B
57.6923,350.0,B
58.0156,350.5,B
58.3523,351.0,B
58.9964,351.5,B
59.693999999999996,352.0,B
58.6369,352.5,B
57.3824,353.0,B
57.0784,353.5,B
56.8616,354.0,B
57.8305,354.5,B
59.3019,355.0,B
59.6803,355.5,B
59.5618,356.0,B
59.3682,356.5,B
59.1339,357.0,B
59.5066,357.5,B
60.221000000000004,358.0,B
60.1728,358.5,B
59.6928,359.0,B
59.0864,359.5,B
58.3942,360.0,B
58.4659,360.5,B
59.0404,361.0,B
60.0216,361.5,B
61.369,362.0,B
60.953,362.5,B
59.2581,363.0,B
58.4037,363.5,B
58.0644,364.0,B
58.9078,364.5,B
60.942,365.0,B
61.1113,365.5,B
59.5314,366.0,B
58.8235,366.5,B
58.8235,367.0,B
59.63,367.5,B
61.3385,368.0,B
62.1013,368.5,B
61.8452,369.0,B
61.2099,369.5,B
60.3457,370.0,B
60.6722,370.5,B
61.7925,371.0,B
61.4075,371.5,B
60.1676,372.0,B
59.0008,372.5,B
57.8559,373.0,B
58.4094,373.5,B
60.0382,374.0,B
60.6553,374.5,B
60.5328,375.0,B
59.8315,375.5,B
58.7724,376.0,B
58.9588,376.5,B
60.0179,377.0,B
60.4839,377.5,B
60.4839,378.0,B
59.9244,378.5,B
58.9793,379.0,B
59.2416,379.5,B
60.4325,380.0,B
60.833999999999996,380.5,B
60.5881,381.0,B
59.9244,381.5,B
58.9793,382.0,B
58.9763,382.5,B
59.6794,383.0,B
60.1982,383.5,B
60.5626,384.0,B
60.1224,384.5,B
59.0549,385.0,B
58.5345,385.5,B
58.4205,386.0,B
58.3658,386.5,B
58.3658,387.0,B
58.1385,387.5,B
57.5816,388.0,B
57.6063,388.5,B
58.7423,389.0,B
59.6659,389.5,B
60.1459,390.0,B
61.0484,390.5,B
62.8577,391.0,B
63.5802,391.5,B
62.3932,392.0,B
60.8384,392.5,B
59.0439,393.0,B
58.6459,393.5,B
59.8181,394.0,B
60.4295,394.5,B
60.308,395.0,B
59.5595,395.5,B
58.0649,396.0,B
57.5348,396.5,B
58.3206,397.0,B
59.4118,397.5,B
61.25,398.0,B
62.0968,398.5,B
61.0887,399.0,B
60.3335,399.5,B
59.972,400.0,B
60.3197,400.5,B
61.6892,401.0,B
61.89,401.5,B
60.64,402.0,B
59.7694,402.5,B
59.297,403.0,B
60.8584,403.5,B
60.8584,404.0,B
60.8584,404.5,B
60.8584,405.0,B
60.8584,405.5,B
60.8584,406.0,B
67.07600000000001,406.5,B
65.9269,407.0,B
66.218,407.5,B
65.9885,408.0,B
65.4113,408.5,B
63.99100000000001,409.0,B
62.5026,409.5,B
64.6271,410.0,B
67.6483,410.5,B
70.9062,411.0,B
74.1669,411.5,B
75.4733,412.0,B
74.1486,412.5,B
71.38600000000001,413.0,B
68.7906,413.5,B
66.447,414.0,B
65.2925,414.5,B
64.57300000000001,415.0,B
64.4343,415.5,B
62.8719,416.0,B
60.8036,416.5,B
59.2217,417.0,B
57.8369,417.5,B
57.5429,418.0,B
57.6534,418.5,B
58.7667,419.0,B
60.6583,419.5,B
60.6586,420.0,B
59.3327,420.5,B
58.6917,421.0,B
58.4628,421.5,B
57.9634,422.0,B
57.1896,422.5,B
56.9067,423.0,B
57.1235,423.5,B
56.8608,424.0,B
55.6071,424.5,B
54.6857,425.0,B
54.1951,425.5,B
53.7634,426.0,B
54.9301,426.5,B
56.2438,427.0,B
56.3107,427.5,B
56.2051,428.0,B
56.1144,428.5,B
56.0096,429.0,B
56.823,429.5,B
58.5999,430.0,B
59.3613,430.5,B
59.0112,431.0,B
58.3078,431.5,B
57.0916,432.0,B
56.2673,432.5,B
55.8496,433.0,B
55.6414,433.5,B
56.2727,434.0,B
56.8741,434.5,B
59.2027,435.0,B
61.4574,435.5,B
61.2075,436.0,B
60.631,436.5,B
60.631,437.0,B
60.631,437.5,B
60.631,438.0,B
60.631,438.5,B
60.631,439.0,B
60.631,439.5,B
53.2401,440.0,B
53.9123,440.5,B
54.6208,441.0,B
56.5167,441.5,B
58.0953,442.0,B
57.5427,442.5,B
57.0342,443.0,B
57.2475,443.5,B
57.466,444.0,B
57.8684,444.5,B
58.3157,445.0,B
58.4606,445.5,B
58.5746,446.0,B
57.8137,446.5,B
56.8187,447.0,B
55.8548,447.5,B
54.7268,448.0,B
54.8137,448.5,B
55.8352,449.0,B
56.4259,449.5,B
56.5323,450.0,B
56.3285,450.5,B
55.005,451.0,B
53.9568,451.5,B
54.6425,452.0,B
55.3394,452.5,B
55.775,453.0,B
56.2953,453.5,B
56.6871,454.0,B
57.1176,454.5,B
56.7498,455.0,B
55.9016,455.5,B
55.2947,456.0,B
54.6908,456.5,B
54.5062,457.0,B
55.2134,457.5,B
55.7327,458.0,B
55.3242,458.5,B
54.9451,459.0,B
54.856,459.5,B
54.7558,460.0,B
55.244,460.5,B
55.9616,461.0,B
56.7285,461.5,B
57.7084,462.0,B
57.8118,462.5,B
57.1512,463.0,B
56.8182,463.5,B
56.8182,464.0,B
56.8772,464.5,B
57.093999999999994,465.0,B
56.9619,465.5,B
55.3144,466.0,B
53.9568,466.5,B
54.1429,467.0,B
54.3384,467.5,B
54.9513,468.0,B
55.7625,468.5,B
55.2505,469.0,B
54.0512,469.5,B
53.4692,470.0,B
53.1853,470.5,B
53.0871,471.0,B
53.9576,471.5,B
54.7445,472.0,B
55.977,472.5,B
57.3404,473.0,B
56.523,473.5,B
55.3609,474.0,B
55.2778,474.5,B
59.2885,0.0,C
59.2885,0.5,C
59.2885,1.0,C
58.8973,1.5,C
58.4359,2.0,C
58.7312,2.5,C
59.1926,3.0,C
58.9342,3.5,C
58.4728,4.0,C
57.8148,4.5,C
57.041000000000004,5.0,C
56.5014,5.5,C
55.9733,6.0,C
55.903,6.5,C
56.2174,7.0,C
56.7069,7.5,C
57.6943,8.0,C
58.4568,8.5,C
58.8014,9.0,C
59.4547,9.5,C
61.1772,10.0,C
61.8198,10.5,C
59.6395,11.0,C
57.9757,11.5,C
57.315,12.0,C
56.8477,12.5,C
57.0645,13.0,C
57.2652,13.5,C
57.5967,14.0,C
57.9151,14.5,C
57.8072,15.0,C
57.6959,15.5,C
57.3042,16.0,C
56.8671,16.5,C
58.7233,17.0,C
61.1785,17.5,C
61.2107,18.0,C
60.5884,18.5,C
59.4899,19.0,C
58.3177,19.5,C
57.8776,20.0,C
57.5434,20.5,C
58.0224,21.0,C
58.8144,21.5,C
58.6766,22.0,C
58.1066,22.5,C
58.0485,23.0,C
58.2738,23.5,C
58.9334,24.0,C
59.9925,24.5,C
59.6524,25.0,C
58.1461,25.5,C
57.3197,26.0,C
56.9932,26.5,C
56.8562,27.0,C
56.9642,27.5,C
57.1993,28.0,C
57.8651,28.5,C
58.7626,29.0,C
60.8298,29.5,C
62.0315,30.0,C
60.3091,30.5,C
58.761,31.0,C
57.5353,31.5,C
56.5658,32.0,C
56.2489,32.5,C
55.9701,33.0,C
56.8106,33.5,C
57.6716,34.0,C
57.3007,34.5,C
56.8636,35.0,C
56.4042,35.5,C
55.8761,36.0,C
55.9608,36.5,C
56.2753,37.0,C
56.391000000000005,37.5,C
56.391000000000005,38.0,C
56.2339,38.5,C
55.8162,39.0,C
55.5556,39.5,C
55.5556,40.0,C
55.573,40.5,C
55.8851,41.0,C
56.1798,41.5,C
56.2769,42.0,C
56.3825,42.5,C
57.2633,43.0,C
58.3647,43.5,C
57.9332,44.0,C
57.0455,44.5,C
57.2357,45.0,C
57.8964,45.5,C
58.6679,46.0,C
59.5981,46.5,C
59.3446,47.0,C
58.1908,47.5,C
57.479,48.0,C
57.042,48.5,C
56.7379,49.0,C
56.5243,49.5,C
56.5249,50.0,C
57.0651,50.5,C
57.598,51.0,C
58.3899,51.5,C
58.9397,52.0,C
58.0381,52.5,C
57.2348,53.0,C
56.6987,53.5,C
56.1798,54.0,C
56.1798,54.5,C
56.1798,55.0,C
56.9245,55.5,C
57.9044,56.0,C
58.7038,56.5,C
59.5145,57.0,C
59.3594,57.5,C
58.7758,58.0,C
58.0947,58.5,C
57.3149,59.0,C
56.8618,59.5,C
56.5402,60.0,C
56.3479,60.5,C
56.2423,61.0,C
56.2374,61.5,C
56.4494,62.0,C
56.653,62.5,C
56.9771,63.0,C
57.2581,63.5,C
57.3677,64.0,C
57.4713,64.5,C
57.4713,65.0,C
57.4713,65.5,C
56.903,66.0,C
56.2573,66.5,C
56.1798,67.0,C
56.1798,67.5,C
56.5724,68.0,C
57.2181,68.5,C
57.7631,69.0,C
58.3244,69.5,C
58.5399,70.0,C
58.4259,70.5,C
58.3658,71.0,C
58.3658,71.5,C
58.7911,72.0,C
59.9726,72.5,C
60.4974,73.0,C
59.8949,73.5,C
58.9085,74.0,C
57.2365,74.5,C
56.0365,75.0,C
55.4192,75.5,C
54.9548,76.0,C
55.1575,76.5,C
55.3506,77.0,C
55.902,77.5,C
56.5286,78.0,C
56.4427,78.5,C
56.2307,79.0,C
56.3121,79.5,C
56.5241,80.0,C
56.5501,80.5,C
56.4438,81.0,C
56.431000000000004,81.5,C
56.5374,82.0,C
56.7148,82.5,C
57.1486,83.0,C
57.4713,83.5,C
57.4713,84.0,C
57.4281,84.5,C
56.8879,85.0,C
56.391000000000005,85.5,C
56.8008,86.0,C
57.2312,86.5,C
57.2519,87.0,C
57.2519,87.5,C
57.3353,88.0,C
57.4449,88.5,C
57.3976,89.0,C
57.2879,89.5,C
57.3151,90.0,C
57.4248,90.5,C
57.6343,91.0,C
57.9685,91.5,C
58.433,92.0,C
59.1251,92.5,C
60.6853,93.0,C
63.5321,93.5,C
66.2369,94.0,C
68.0319,94.5,C
66.5347,95.0,C
63.7766,95.5,C
59.9915,96.0,C
56.4358,96.5,C
57.6926,97.0,C
59.6027,97.5,C
59.7183,98.0,C
59.3625,98.5,C
58.9342,99.0,C
58.4728,99.5,C
58.4469,100.0,C
58.5609,100.5,C
59.5505,101.0,C
60.9913,101.5,C
61.5655,102.0,C
61.692,102.5,C
60.8818,103.0,C
59.7795,103.5,C
59.7029,104.0,C
59.941,104.5,C
59.9101,105.0,C
59.7906,105.5,C
59.4122,106.0,C
58.9435,106.5,C
58.5037,107.0,C
58.0495,107.5,C
57.6367,108.0,C
57.1963,108.5,C
57.1496,109.0,C
57.3681,109.5,C
57.8197,110.0,C
58.6116,110.5,C
59.1991,111.0,C
59.552,111.5,C
59.6198,112.0,C
59.2669,112.5,C
59.7371,113.0,C
61.5903,113.5,C
63.6519,114.0,C
65.6045,114.5,C
65.4723,115.0,C
63.6515,115.5,C
60.6914,116.0,C
57.5879,116.5,C
57.0979,117.0,C
57.535,117.5,C
57.6923,118.0,C
57.6923,118.5,C
57.6923,119.0,C
57.6923,119.5,C
58.4995,120.0,C
60.5176,120.5,C
61.4446,121.0,C
60.8224,121.5,C
59.7211,122.0,C
58.1051,122.5,C
57.0901,123.0,C
56.6596,123.5,C
56.4174,124.0,C
56.5238,124.5,C
56.6175,125.0,C
56.7247,125.5,C
56.8064,126.0,C
56.0726,126.5,C
55.3506,127.0,C
55.525,127.5,C
55.7308,128.0,C
55.8345,128.5,C
55.9385,129.0,C
56.3239,129.5,C
56.9648,130.0,C
56.9597,130.5,C
56.3188,131.0,C
55.9701,131.5,C
55.9701,132.0,C
55.9878,132.5,C
56.0926,133.0,C
56.1866,133.5,C
56.3986,134.0,C
56.6038,134.5,C
57.5112,135.0,C
58.5062,135.5,C
58.2043,136.0,C
57.7536,136.5,C
57.6057,137.0,C
57.4951,137.5,C
57.3192,138.0,C
57.1007,138.5,C
57.6324,139.0,C
58.6429,139.5,C
59.8751,140.0,C
61.3392,140.5,C
61.2161,141.0,C
59.9862,141.5,C
58.5072,142.0,C
56.8352,142.5,C
56.0325,143.0,C
55.7203,143.5,C
55.6202,144.0,C
55.8275,144.5,C
56.2489,145.0,C
57.9081,145.5,C
59.3226,146.0,C
59.5588,146.5,C
59.761,147.0,C
59.761,147.5,C
59.8387,148.0,C
60.446000000000005,148.5,C
60.8976,149.0,C
60.4098,149.5,C
59.7977,150.0,C
58.5333,150.5,C
57.4478,151.0,C
57.1212,151.5,C
56.8182,152.0,C
56.7153,152.5,C
56.6081,153.0,C
57.06100000000001,153.5,C
57.6052,154.0,C
57.777,154.5,C
57.8883,155.0,C
57.464,155.5,C
56.8083,156.0,C
57.0399,156.5,C
57.8078,157.0,C
58.0268,157.5,C
57.8032,158.0,C
57.7871,158.5,C
58.0107,159.0,C
58.0192,159.5,C
57.6851,160.0,C
57.2956,160.5,C
56.6499,161.0,C
56.1655,161.5,C
56.0607,162.0,C
55.9701,162.5,C
56.1789,163.0,C
56.3893,163.5,C
56.6689,164.0,C
56.9905,164.5,C
57.6268,165.0,C
58.4066,165.5,C
58.758,166.0,C
58.9887,166.5,C
58.9764,167.0,C
58.8606,167.5,C
60.5128,168.0,C
63.1523,168.5,C
63.1523,169.0,C
63.1523,169.5,C
63.1523,170.0,C
63.1523,170.5,C
63.1523,171.0,C
63.1523,171.5,C
63.1523,172.0,C
76.9231,172.5,C
73.0549,173.0,C
68.1765,173.5,C
64.3208,174.0,C
61.4754,174.5,C
61.4754,175.0,C
61.9378,175.5,C
63.2514,176.0,C
63.9722,176.5,C
63.7006,177.0,C
63.3232,177.5,C
62.9243,178.0,C
63.1247,178.5,C
63.6589,179.0,C
64.9645,179.5,C
66.383,180.0,C
65.8009,180.5,C
64.8101,181.0,C
63.9882,181.5,C
63.4657,182.0,C
64.1478,182.5,C
64.436,183.0,C
63.8881,183.5,C
62.8347,184.0,C
61.4194,184.5,C
60.7949,185.0,C
60.9183,185.5,C
60.2992,186.0,C
59.1082,186.5,C
58.8356,187.0,C
59.3006,187.5,C
60.0156,188.0,C
60.9914,188.5,C
61.2017,189.0,C
60.706,189.5,C
60.0781,190.0,C
59.3637,190.5,C
58.6899,191.0,C
58.0085,191.5,C
57.493,192.0,C
57.0559,192.5,C
56.9685,193.0,C
57.4056,193.5,C
58.2587,194.0,C
60.4043,194.5,C
62.1979,195.0,C
62.8518,195.5,C
62.3261,196.0,C
60.0923,196.5,C
59.1013,197.0,C
59.8101,197.5,C
59.5564,198.0,C
57.845,198.5,C
56.6364,199.0,C
56.0051,199.5,C
55.4657,200.0,C
54.7637,200.5,C
54.1516,201.0,C
54.3312,201.5,C
54.5281,202.0,C
54.7596,202.5,C
55.0604,203.0,C
55.2565,203.5,C
55.4608,204.0,C
55.7126,204.5,C
56.1303,205.0,C
56.0891,205.5,C
54.8721,206.0,C
53.9545,206.5,C
53.8578,207.0,C
53.7634,207.5,C
53.3886,208.0,C
52.9153,208.5,C
52.9635,209.0,C
53.2455,209.5,C
53.6487,210.0,C
54.6336,210.5,C
55.2984,211.0,C
54.797,211.5,C
54.3478,212.0,C
54.086000000000006,212.5,C
53.7938,213.0,C
53.8276,213.5,C
53.9243,214.0,C
53.9997,214.5,C
54.0971,215.0,C
54.218,215.5,C
54.5145,216.0,C
54.7413,216.5,C
54.6418,217.0,C
54.5455,217.5,C
54.3006,218.0,C
54.0063,218.5,C
54.3187,219.0,C
54.9138,219.5,C
55.2353,220.0,C
55.4395,220.5,C
55.6981,221.0,C
56.2222,221.5,C
56.6365,222.0,C
56.8517,222.5,C
57.0188,223.0,C
56.6972,223.5,C
56.391000000000005,224.0,C
56.391000000000005,224.5,C
56.391000000000005,225.0,C
57.3543,225.5,C
58.5705,226.0,C
60.3042,226.5,C
62.2732,227.0,C
65.1688,227.5,C
67.8781,228.0,C
66.5576,228.5,C
64.9351,229.0,C
64.9351,229.5,C
63.8283,230.0,C
61.0051,230.5,C
58.6397,231.0,C
56.8764,231.5,C
56.4064,232.0,C
59.3896,232.5,C
62.7778,233.0,C
66.6358,233.5,C
69.2712,234.0,C
68.9526,234.5,C
67.3714,235.0,C
65.5764,235.5,C
64.8143,236.0,C
64.3043,236.5,C
63.3487,237.0,C
61.9624,237.5,C
58.9079,238.0,C
56.4329,238.5,C
57.3072,239.0,C
58.1395,239.5,C
57.4894,240.0,C
56.8288,240.5,C
57.0073,241.0,C
57.2241,241.5,C
57.0836,242.0,C
56.8668,242.5,C
56.4676,243.0,C
55.9395,243.5,C
56.7858,244.0,C
58.7852,244.5,C
59.5247,245.0,C
59.056000000000004,245.5,C
58.7173,246.0,C
58.4884,246.5,C
58.6504,247.0,C
59.348,247.5,C
59.4819,248.0,C
58.7843,248.5,C
58.6057,249.0,C
59.3033,249.5,C
59.8416,250.0,C
60.0816,250.5,C
59.7268,251.0,C
58.2323,251.5,C
57.0416,252.0,C
56.1934,252.5,C
55.5738,253.0,C
55.7811,253.5,C
55.9701,254.0,C
57.4263,254.5,C
58.9687,255.0,C
59.1616,255.5,C
59.2783,256.0,C
58.0965,256.5,C
56.7541,257.0,C
56.8527,257.5,C
57.1767,258.0,C
56.3425,258.5,C
54.9893,259.0,C
55.2881,259.5,C
56.8615,260.0,C
57.736000000000004,260.5,C
57.8473,261.0,C
57.6039,261.5,C
56.6314,262.0,C
56.0259,262.5,C
56.3427,263.0,C
56.5744,263.5,C
56.0503,264.0,C
55.5556,264.5,C
56.3155,265.0,C
57.1637,265.5,C
56.9927,266.0,C
56.6686,266.5,C
56.3176,267.0,C
55.8968,267.5,C
55.9281,268.0,C
56.2426,268.5,C
56.1422,269.0,C
55.5202,269.5,C
54.9921,270.0,C
54.3003,270.5,C
53.7634,271.0,C
54.1513,271.5,C
54.5423,272.0,C
54.4672,272.5,C
54.3684,273.0,C
54.3478,273.5,C
54.3478,274.0,C
54.4601,274.5,C
54.7587,275.0,C
55.2088,275.5,C
56.5824,276.0,C
57.8623,276.5,C
59.3806,277.0,C
60.3355,277.5,C
57.4436,278.0,C
54.9451,278.5,C
54.5674,279.0,C
54.1707,279.5,C
53.7291,280.0,C
53.1551,280.5,C
53.1376,281.0,C
53.4215,281.5,C
53.5056,282.0,C
53.2216,282.5,C
53.0035,283.0,C
53.4649,283.5,C
53.9416,284.0,C
54.3996,284.5,C
54.9947,285.0,C
54.6454,285.5,C
53.7623,286.0,C
53.5671,286.5,C
54.1495,287.0,C
54.5574,287.5,C
54.6569,288.0,C
54.7445,288.5,C
56.1123,289.0,C
57.5862,289.5,C
57.7868,290.0,C
57.8981,290.5,C
58.448,291.0,C
59.1347,291.5,C
60.3985,292.0,C
61.8746,292.5,C
60.6442,293.0,C
58.7068,293.5,C
57.5263,294.0,C
56.4333,294.5,C
58.427,295.0,C
58.427,295.5,C
58.427,296.0,C
58.427,296.5,C
58.427,297.0,C
63.4306,297.5,C
59.3333,298.0,C
55.5556,298.5,C
57.1234,299.0,C
58.8731,299.5,C
59.8848,300.0,C
60.845,300.5,C
59.016999999999996,301.0,C
56.8311,301.5,C
57.6455,302.0,C
58.9878,302.5,C
60.3985,303.0,C
61.8746,303.5,C
61.4168,304.0,C
60.4169,304.5,C
59.0888,305.0,C
57.7039,305.5,C
58.8675,306.0,C
60.7441,306.5,C
60.6508,307.0,C
59.919,307.5,C
58.6192,308.0,C
57.1478,308.5,C
58.1984,309.0,C
60.2772,309.5,C
61.0622,310.0,C
61.1867,310.5,C
60.3409,311.0,C
59.1405,311.5,C
60.3783,312.0,C
62.6121,312.5,C
65.2474,313.0,C
67.8217,313.5,C
71.5332,314.0,C
75.4708,314.5,C
77.4244,315.0,C
73.3045,315.5,C
73.3045,316.0,C
73.3045,316.5,C
73.3045,317.0,C
73.3045,317.5,C
73.3045,318.0,C
73.3045,318.5,C
73.3045,319.0,C
73.3045,319.5,C
73.3045,320.0,C
56.0491,320.5,C
56.783,321.0,C
58.0541,321.5,C
59.5255,322.0,C
59.8604,322.5,C
59.9799,323.0,C
59.3202,323.5,C
58.503,324.0,C
58.8151,324.5,C
59.3941,325.0,C
59.5238,325.5,C
59.5238,326.0,C
58.5173,326.5,C
57.1645,327.0,C
56.8865,327.5,C
56.9945,328.0,C
57.208,328.5,C
57.537,329.0,C
57.2137,329.5,C
56.1453,330.0,C
55.4676,330.5,C
55.1624,331.0,C
54.9768,331.5,C
55.2821,332.0,C
55.5556,332.5,C
55.4588,333.0,C
55.3563,333.5,C
55.4301,334.0,C
55.5326,334.5,C
55.4924,335.0,C
55.3899,335.5,C
55.1702,336.0,C
54.7677,336.5,C
54.5701,337.0,C
54.6697,337.5,C
54.7672,338.0,C
55.1727,338.5,C
55.5556,339.0,C
55.1922,339.5,C
54.7867,340.0,C
54.8862,340.5,C
55.0875,341.0,C
55.4755,341.5,C
56.0974,342.0,C
56.9705,342.5,C
58.4193,343.0,C
60.6202,343.5,C
60.6202,344.0,C
60.6202,344.5,C
64.8084,345.0,C
63.0933,345.5,C
61.2688,346.0,C
61.0926,346.5,C
61.5924,347.0,C
60.9572,347.5,C
59.9734,348.0,C
59.2196,348.5,C
58.522,349.0,C
58.2843,349.5,C
58.1712,350.0,C
57.9928,350.5,C
57.7692,351.0,C
57.8863,351.5,C
58.223,352.0,C
59.0443,352.5,C
60.3492,353.0,C
60.5749,353.5,C
59.849,354.0,C
58.8566,354.5,C
57.6118,355.0,C
57.0812,355.5,C
57.1901,356.0,C
57.8775,356.5,C
59.7393,357.0,C
60.8851,357.5,C
60.6393,358.0,C
60.6261,358.5,C
60.9964,359.0,C
61.8346,359.5,C
63.2737,360.0,C
63.8052,360.5,C
63.2665,361.0,C
62.2018,361.5,C
60.9311,362.0,C
61.0671,362.5,C
61.9455,363.0,C
63.0271,363.5,C
64.0956,364.0,C
64.1388,364.5,C
63.8649,365.0,C
64.518,365.5,C
65.2773,366.0,C
65.7138,366.5,C
65.1804,367.0,C
62.5051,367.5,C
60.5545,368.0,C
60.0706,368.5,C
59.3969,369.0,C
58.3625,369.5,C
57.1843,370.0,C
55.3165,370.5,C
54.0153,371.0,C
55.2323,371.5,C
56.391000000000005,372.0,C
57.1953,372.5,C
58.0696,373.0,C
57.9481,373.5,C
57.7245,374.0,C
57.8658,374.5,C
58.0894,375.0,C
58.5486,375.5,C
59.1231,376.0,C
59.2082,376.5,C
59.0915,377.0,C
59.5237,377.5,C
60.2381,378.0,C
61.6081,378.5,C
63.2811,379.0,C
62.4086,379.5,C
60.6142,380.0,C
58.4494,380.5,C
56.21,381.0,C
57.7778,381.5,C
60.8885,382.0,C
60.8885,382.5,C
60.8885,383.0,C
60.8885,383.5,C
60.8885,384.0,C
60.8885,384.5,C
65.2575,385.0,C
60.3814,385.5,C
57.3487,386.0,C
54.897,386.5,C
54.5381,387.0,C
55.3434,387.5,C
55.9707,388.0,C
56.6068,388.5,C
57.735,389.0,C
60.8635,389.5,C
62.9114,390.0,C
61.7536,390.5,C
60.3846,391.0,C
58.743,391.5,C
57.8507,392.0,C
58.4163,392.5,C
58.9076,393.0,C
59.2577,393.5,C
59.4196,394.0,C
58.9546,394.5,C
59.0071,395.0,C
61.3558,395.5,C
63.0369,396.0,C
62.1291,396.5,C
60.7471,397.0,C
58.5265,397.5,C
56.986000000000004,398.0,C
56.7708,398.5,C
56.9655,399.0,C
60.4432,399.5,C
63.6477,400.0,C
64.0569,400.5,C
63.8227,401.0,C
62.2461,401.5,C
60.0333,402.0,C
56.9946,402.5,C
55.1252,403.0,C
55.0242,403.5,C
54.9483,404.0,C
55.0493,404.5,C
55.1471,405.0,C
55.7705,405.5,C
56.4989,406.0,C
56.7622,406.5,C
56.9774,407.0,C
56.831,407.5,C
56.5093,408.0,C
56.3378,408.5,C
56.2322,409.0,C
56.1029,409.5,C
55.8941,410.0,C
55.7398,410.5,C
55.6365,411.0,C
55.5108,411.5,C
54.7114,412.0,C
53.9568,412.5,C
54.5366,413.0,C
55.2335,413.5,C
55.4186,414.0,C
55.5211,414.5,C
55.7661,415.0,C
56.1838,415.5,C
56.5119,416.0,C
56.8335,416.5,C
57.2463,417.0,C
58.0261,417.5,C
59.1499,418.0,C
61.6327,418.5,C
63.5143,419.0,C
63.3802,419.5,C
62.9473,420.0,C
62.166000000000004,420.5,C
61.4198,421.0,C
60.7975,421.5,C
59.6565,422.0,C
58.0405,422.5,C
57.0728,423.0,C
56.6424,423.5,C
56.5465,424.0,C
57.0867,424.5,C
57.406000000000006,425.0,C
57.0794,425.5,C
56.8469,426.0,C
57.1735,426.5,C
57.4713,427.0,C
57.3616,427.5,C
57.2519,428.0,C
56.8628,428.5,C
56.4323,429.0,C
56.309,429.5,C
56.2034,430.0,C
55.8493,430.5,C
55.3329,431.0,C
55.1943,431.5,C
55.29600000000001,432.0,C
55.3506,432.5,C
55.3506,433.0,C
55.3375,433.5,C
55.2358,434.0,C
55.1471,434.5,C
54.9555,435.0,C
54.7542,435.5,C
55.1312,436.0,C
55.64,436.5,C
57.7316,437.0,C
57.7316,437.5,C
57.7316,438.0,C
57.7316,438.5,C
57.7316,439.0,C
57.7316,439.5,C
57.7316,440.0,C
57.7316,440.5,C
57.7316,441.0,C
73.243,441.5,C
67.4057,442.0,C
61.6914,442.5,C
60.0,443.0,C
60.0,443.5,C
60.9721,444.0,C
62.3528,444.5,C
62.5553,445.0,C
62.2948,445.5,C
61.5875,446.0,C
60.8316,446.5,C
63.2342,447.0,C
66.0209,447.5,C
65.9022,448.0,C
65.1623,448.5,C
63.792,449.0,C
62.674,449.5,C
62.4136,450.0,C
61.8823,450.5,C
61.0039,451.0,C
60.181000000000004,451.5,C
59.4666,452.0,C
59.2875,452.5,C
59.8805,453.0,C
61.2362,453.5,C
63.7245,454.0,C
65.7906,454.5,C
66.8142,455.0,C
66.4703,455.5,C
65.4467,456.0,C
64.6957,456.5,C
64.1209,457.0,C
63.8136,457.5,C
63.5357,458.0,C
63.4016,458.5,C
63.2911,459.0,C
63.2911,459.5,C
63.8826,460.0,C
65.4229,460.5,C
65.5617,461.0,C
64.1555,461.5,C
61.1666,462.0,C
57.6888,462.5,C
56.726000000000006,463.0,C
56.9412,463.5,C
58.363,464.0,C
61.2266,464.5,C
62.5468,465.0,C
62.1578,465.5,C
61.597,466.0,C
60.9697,466.5,C
60.2679,467.0,C
59.5478,467.5,C
59.8082,468.0,C
60.6517,468.5,C
60.6595,469.0,C
60.1717,469.5,C
61.1532,470.0,C
62.9329,470.5,C
64.1894,471.0,C
65.0184,471.5,C
62.5983,472.0,C
59.7516,472.5,C
58.0123,473.0,C
56.3403,473.5,C
56.3426,474.0,C
56.5546,474.5,C
91.4634,0.0,D
91.4634,0.5,D
91.1834,1.0,D
91.8788,1.5,D
91.1772,2.0,D
89.7992,2.5,D
90.3571,3.0,D
92.0227,3.5,D
91.9105,4.0,D
91.141,4.5,D
91.9571,5.0,D
91.8744,5.5,D
90.1645,6.0,D
89.8047,6.5,D
91.6464,7.0,D
93.1426,7.5,D
93.4519,8.0,D
92.3365,8.5,D
91.5574,9.0,D
92.0669,9.5,D
92.2745,10.0,D
92.7285,10.5,D
94.4017,11.0,D
95.7123,11.5,D
95.2184,12.0,D
95.2685,12.5,D
96.3945,13.0,D
96.8731,13.5,D
97.1613,14.0,D
97.054,14.5,D
97.7903,15.0,D
98.6842,15.5,D
98.6842,16.0,D
98.8201,16.5,D
99.1469,17.0,D
99.3377,17.5,D
99.3377,18.0,D
99.3377,18.5,D
99.1469,19.0,D
98.9404,19.5,D
99.0789,20.0,D
98.9587,20.5,D
99.3053,21.0,D
99.7168,21.5,D
99.4225,22.0,D
99.7811,22.5,D
101.133,23.0,D
102.041,23.5,D
101.37200000000001,24.0,D
100.954,24.5,D
101.27799999999999,25.0,D
101.495,25.5,D
101.839,26.0,D
102.041,26.5,D
102.041,27.0,D
102.041,27.5,D
102.041,28.0,D
102.228,28.5,D
102.57799999999999,29.0,D
102.67,29.5,D
102.32,30.0,D
102.041,30.5,D
102.041,31.0,D
101.581,31.5,D
101.059,32.0,D
101.17399999999999,32.5,D
101.166,33.0,D
99.5098,33.5,D
98.0392,34.0,D
97.8279,34.5,D
96.9769,35.0,D
95.6878,35.5,D
95.2898,36.0,D
95.2657,36.5,D
93.4809,37.0,D
91.1667,37.5,D
90.3614,38.0,D
88.0565,38.5,D
85.8787,39.0,D
85.819,39.5,D
84.4828,40.0,D
83.5102,40.5,D
83.5912,41.0,D
83.184,41.5,D
83.0755,42.0,D
83.1042,42.5,D
82.67399999999999,43.0,D
82.6416,43.5,D
82.6266,44.0,D
82.1936,44.5,D
82.2086,45.0,D
81.7388,45.5,D
80.637,46.0,D
80.2139,46.5,D
80.2139,47.0,D
80.2415,47.5,D
80.4571,48.0,D
80.7847,48.5,D
81.0026,49.0,D
81.0811,49.5,D
81.0811,50.0,D
81.3063,50.5,D
82.4324,51.0,D
83.5102,51.5,D
84.1379,52.0,D
85.3978,52.5,D
85.5231,53.0,D
85.0443,53.5,D
85.4237,54.0,D
85.1719,54.5,D
84.9153,55.0,D
85.3747,55.5,D
86.185,56.0,D
86.7052,56.5,D
86.8383,57.0,D
87.0903,57.5,D
87.2093,58.0,D
87.2093,58.5,D
87.3113,59.0,D
87.5746,59.5,D
87.9856,60.0,D
88.2353,60.5,D
88.8264,61.0,D
90.721,61.5,D
92.0245,62.0,D
92.0245,62.5,D
91.4768,63.0,D
90.1074,63.5,D
89.2857,64.0,D
90.463,64.5,D
91.9982,65.0,D
92.3535,65.5,D
93.6437,66.0,D
93.229,66.5,D
91.8115,67.0,D
92.6347,67.5,D
93.1677,68.0,D
93.7255,68.5,D
93.1451,69.0,D
91.5578,69.5,D
91.3269,70.0,D
92.3565,70.5,D
93.389,71.0,D
93.9649,71.5,D
94.7596,72.0,D
95.6767,72.5,D
96.7582,73.0,D
97.6169,73.5,D
97.9552,74.0,D
98.1321,74.5,D
98.4546,75.0,D
98.6842,75.5,D
98.6842,76.0,D
98.6842,76.5,D
98.6842,77.0,D
98.7522,77.5,D
99.0789,78.0,D
99.6689,78.5,D
100.0,79.0,D
100.0,79.5,D
100.0,80.0,D
100.06700000000001,80.5,D
100.40299999999999,81.0,D
100.671,81.5,D
100.949,82.0,D
101.507,82.5,D
101.757,83.0,D
101.633,83.5,D
101.823,84.0,D
102.42399999999999,84.5,D
103.068,85.0,D
103.42299999999999,85.5,D
103.23299999999999,86.0,D
103.03399999999999,86.5,D
103.15100000000001,87.0,D
103.03399999999999,87.5,D
103.134,88.0,D
103.448,88.5,D
103.448,89.0,D
103.448,89.5,D
103.618,90.0,D
103.977,90.5,D
104.167,91.0,D
104.161,91.5,D
103.802,92.0,D
103.756,92.5,D
103.86200000000001,93.0,D
103.36200000000001,93.5,D
103.03399999999999,94.0,D
103.075,94.5,D
102.565,95.0,D
101.329,95.5,D
100.96,96.0,D
101.3,96.5,D
100.711,97.0,D
99.4639,97.5,D
99.0789,98.0,D
98.9927,98.5,D
98.1459,99.0,D
97.6987,99.5,D
97.5524,100.0,D
96.4537,100.5,D
93.8084,101.0,D
92.2608,101.5,D
92.0937,102.0,D
91.3595,102.5,D
91.2461,103.0,D
90.0043,103.5,D
88.3902,104.0,D
88.2833,104.5,D
88.5444,105.0,D
87.4915,105.5,D
85.9699,106.0,D
85.6912,106.5,D
84.9689,107.0,D
84.2697,107.5,D
84.2697,108.0,D
84.2697,108.5,D
84.4506,109.0,D
84.8552,109.5,D
85.3966,110.0,D
85.9468,110.5,D
85.7898,111.0,D
85.0731,111.5,D
84.7458,112.0,D
85.0944,112.5,D
85.5787,113.0,D
85.7143,113.5,D
85.4903,114.0,D
85.2468,114.5,D
85.3837,115.0,D
86.8877,115.5,D
88.2353,116.0,D
86.9463,116.5,D
86.9463,117.0,D
86.9463,117.5,D
86.9463,118.0,D
85.6331,118.5,D
87.4806,119.0,D
88.8293,119.5,D
90.5285,120.0,D
91.3636,120.5,D
92.6799,121.0,D
93.75,121.5,D
94.2014,122.0,D
95.1731,122.5,D
95.9236,123.0,D
96.464,123.5,D
96.5385,124.0,D
96.3871,124.5,D
96.6228,125.0,D
96.7842,125.5,D
97.0984,126.0,D
97.6572,126.5,D
98.1613,127.0,D
98.5475,127.5,D
98.6378,128.0,D
98.3153,128.5,D
98.3359,129.0,D
98.8885,129.5,D
99.0789,130.0,D
99.0331,130.5,D
99.5263,131.0,D
100.0,131.5,D
99.1373,132.0,D
99.2432,132.5,D
100.944,133.0,D
101.36200000000001,133.5,D
99.8657,134.0,D
98.6842,134.5,D
98.9665,135.0,D
98.4525,135.5,D
97.4782,136.0,D
97.6698,136.5,D
98.0392,137.0,D
97.1267,137.5,D
97.3302,138.0,D
98.89200000000001,138.5,D
99.1404,139.0,D
98.5695,139.5,D
99.098,140.0,D
100.295,140.5,D
100.4,141.0,D
100.105,141.5,D
100.0,142.0,D
99.9421,142.5,D
99.2842,143.0,D
98.9692,143.5,D
99.2959,144.0,D
99.0417,144.5,D
98.3924,145.0,D
98.0418,145.5,D
98.3643,146.0,D
98.1767,146.5,D
97.8947,147.0,D
98.4023,147.5,D
98.6429,148.0,D
98.3204,148.5,D
98.6262,149.0,D
99.5059,149.5,D
99.4131,150.0,D
98.7099,150.5,D
98.8651,151.0,D
99.3377,151.5,D
99.05799999999999,152.0,D
98.9404,152.5,D
99.0789,153.0,D
98.8698,153.5,D
98.6842,154.0,D
99.01100000000001,154.5,D
99.0789,155.0,D
98.9404,155.5,D
99.0789,156.0,D
98.9404,156.5,D
99.0606,157.0,D
99.0293,157.5,D
98.7025,158.0,D
98.5191,158.5,D
98.1966,159.0,D
98.0808,159.5,D
98.73,160.0,D
97.1986,160.5,D
94.6995,161.0,D
94.3396,161.5,D
94.2072,162.0,D
94.2072,162.5,D
94.2072,163.0,D
94.2072,163.5,D
94.2072,164.0,D
94.2072,164.5,D
88.9888,165.0,D
90.3422,165.5,D
90.9091,166.0,D
91.1685,166.5,D
92.3431,167.0,D
93.904,167.5,D
94.7699,168.0,D
95.2657,168.5,D
96.5805,169.0,D
98.0255,169.5,D
98.9472,170.0,D
100.06700000000001,170.5,D
100.677,171.0,D
101.361,171.5,D
101.75399999999999,172.0,D
101.633,172.5,D
102.084,173.0,D
102.555,173.5,D
102.788,174.0,D
103.14200000000001,174.5,D
102.76100000000001,175.0,D
101.78200000000001,175.5,D
101.633,176.0,D
101.757,176.5,D
101.544,177.0,D
101.376,177.5,D
101.721,178.0,D
101.73200000000001,178.5,D
101.387,179.0,D
101.351,179.5,D
101.351,180.0,D
101.29700000000001,180.5,D
100.95700000000001,181.0,D
101.0,181.5,D
101.074,182.0,D
100.35,182.5,D
99.6098,183.0,D
99.2802,183.5,D
98.9535,184.0,D
99.6379,184.5,D
100.631,185.0,D
100.478,185.5,D
100.26799999999999,186.0,D
100.524,186.5,D
101.074,187.0,D
101.351,187.5,D
101.351,188.0,D
101.569,188.5,D
101.569,189.0,D
101.569,189.5,D
100.62299999999999,190.0,D
99.6296,190.5,D
99.6296,191.0,D
104.167,191.5,D
103.917,192.0,D
103.75,192.5,D
104.14,193.0,D
104.671,193.5,D
104.82600000000001,194.0,D
104.102,194.5,D
103.448,195.0,D
103.448,195.5,D
103.23,196.0,D
102.876,196.5,D
102.839,197.0,D
103.15100000000001,197.5,D
103.051,198.0,D
103.07700000000001,198.5,D
103.71600000000001,199.0,D
104.09200000000001,199.5,D
104.167,200.0,D
104.167,200.5,D
104.167,201.0,D
104.178,201.5,D
104.54299999999999,202.0,D
104.572,202.5,D
104.20700000000001,203.0,D
104.167,203.5,D
104.167,204.0,D
103.96700000000001,204.5,D
103.29299999999999,205.0,D
103.134,205.5,D
103.448,206.0,D
103.16799999999999,206.5,D
103.03399999999999,207.0,D
102.98899999999999,207.5,D
102.41799999999999,208.0,D
102.08,208.5,D
102.429,209.0,D
102.084,209.5,D
101.91799999999999,210.0,D
102.573,210.5,D
102.74,211.0,D
102.74,211.5,D
102.74,212.0,D
102.74,212.5,D
102.74,213.0,D
102.74,213.5,D
102.536,214.0,D
101.501,214.5,D
99.6778,215.0,D
98.6842,215.5,D
98.3695,216.0,D
96.6559,216.5,D
94.9417,217.0,D
94.7815,217.5,D
94.9367,218.0,D
92.2468,218.5,D
90.7785,219.0,D
92.6852,219.5,D
92.9815,220.0,D
92.5926,220.5,D
92.8042,221.0,D
93.3543,221.5,D
94.0162,222.0,D
94.3396,222.5,D
94.3396,223.0,D
94.3396,223.5,D
94.4471,224.0,D
94.7456,224.5,D
94.9367,225.0,D
94.9367,225.5,D
94.9367,226.0,D
95.21600000000001,226.5,D
96.1549,227.0,D
97.1085,227.5,D
97.6674,228.0,D
98.1818,228.5,D
98.5578,229.0,D
98.8,229.5,D
99.4579,230.0,D
99.3579,230.5,D
99.2,231.0,D
99.8421,231.5,D
100.0,232.0,D
100.0,232.5,D
100.0,233.0,D
100.0,233.5,D
100.0,234.0,D
100.18799999999999,234.5,D
100.523,235.0,D
100.61200000000001,235.5,D
100.277,236.0,D
100.0,236.5,D
100.26,237.0,D
100.4,237.5,D
100.26799999999999,238.0,D
100.53,238.5,D
101.074,239.0,D
101.009,239.5,D
100.949,240.0,D
100.86200000000001,240.5,D
100.541,241.0,D
100.96799999999999,241.5,D
101.30799999999999,242.0,D
100.632,242.5,D
100.29,243.0,D
100.854,243.5,D
101.074,244.0,D
100.946,244.5,D
101.15100000000001,245.0,D
101.735,245.5,D
101.71799999999999,246.0,D
101.633,246.5,D
101.955,247.0,D
101.76700000000001,247.5,D
101.22399999999999,248.0,D
101.49799999999999,248.5,D
102.041,249.0,D
101.74600000000001,249.5,D
101.633,250.0,D
101.928,250.5,D
101.931,251.0,D
101.633,251.5,D
101.743,252.0,D
101.71,252.5,D
101.365,253.0,D
101.555,253.5,D
101.476,254.0,D
100.454,254.5,D
99.2,255.0,D
99.3421,255.5,D
98.7097,256.0,D
97.45100000000001,256.5,D
97.1394,257.0,D
95.6458,257.5,D
95.6348,258.0,D
95.0514,258.5,D
93.2661,259.0,D
92.9896,259.5,D
91.2979,260.0,D
91.8811,260.5,D
93.2204,261.0,D
92.6499,261.5,D
94.1279,262.0,D
94.8972,262.5,D
94.1038,263.0,D
93.508,263.5,D
92.9348,264.0,D
92.9446,264.5,D
92.6327,265.0,D
92.4224,265.5,D
92.9574,266.0,D
93.1045,266.5,D
91.9752,267.0,D
92.1715,267.5,D
93.6149,268.0,D
93.5849,268.5,D
93.8568,269.0,D
93.8099,269.5,D
93.0468,270.0,D
92.5223,270.5,D
91.8451,271.0,D
91.184,271.5,D
91.2928,272.0,D
91.8505,272.5,D
92.1171,273.0,D
93.2747,273.5,D
93.6338,274.0,D
93.2075,274.5,D
93.985,275.0,D
94.7098,275.5,D
92.704,276.0,D
91.3256,276.5,D
92.6738,277.0,D
93.1265,277.5,D
92.555,278.0,D
92.2427,278.5,D
92.5267,279.0,D
92.4932,279.5,D
91.9286,280.0,D
91.4634,280.5,D
91.7751,281.0,D
92.4133,281.5,D
92.9538,282.0,D
93.1677,282.5,D
93.7692,283.0,D
94.6537,283.5,D
94.9367,284.0,D
94.9367,284.5,D
95.4771,285.0,D
96.4853,285.5,D
97.3077,286.0,D
97.9101,286.5,D
98.4211,287.0,D
98.37200000000001,287.5,D
98.5326,288.0,D
98.9964,288.5,D
98.8358,289.0,D
98.7182,289.5,D
99.045,290.0,D
99.6344,290.5,D
99.7351,291.0,D
99.6,291.5,D
99.9271,292.0,D
100.4,292.5,D
100.303,293.0,D
100.301,293.5,D
100.63600000000001,294.0,D
100.671,294.5,D
100.78,295.0,D
101.12,295.5,D
101.351,296.0,D
101.351,296.5,D
101.616,297.0,D
101.961,297.5,D
101.897,298.0,D
101.633,298.5,D
101.757,299.0,D
101.677,299.5,D
101.95700000000001,300.0,D
102.65100000000001,300.5,D
102.552,301.0,D
102.329,301.5,D
102.516,302.0,D
102.74,302.5,D
102.74,303.0,D
102.146,303.5,D
101.68299999999999,304.0,D
102.101,304.5,D
102.11399999999999,305.0,D
100.964,305.5,D
100.37899999999999,306.0,D
100.35700000000001,306.5,D
100.021,307.0,D
100.0,307.5,D
99.8887,308.0,D
99.6,308.5,D
99.7113,309.0,D
100.0,309.5,D
100.0,310.0,D
100.177,310.5,D
100.51299999999999,311.0,D
100.671,311.5,D
100.671,312.0,D
100.671,312.5,D
100.93,313.0,D
101.074,313.5,D
100.815,314.0,D
100.671,314.5,D
100.671,315.0,D
100.671,315.5,D
102.905,316.0,D
102.905,316.5,D
96.4238,317.0,D
99.8268,317.5,D
97.9788,318.0,D
102.074,318.5,D
100.874,319.0,D
100.874,319.5,D
100.874,320.0,D
94.7721,320.5,D
93.8649,321.0,D
91.706,321.5,D
91.5335,322.0,D
90.5322,322.5,D
90.0974,323.0,D
89.8032,323.5,D
89.0012,324.0,D
88.7574,324.5,D
89.2846,325.0,D
89.9936,325.5,D
90.3582,326.0,D
90.7273,326.5,D
91.1885,327.0,D
91.6587,327.5,D
91.9392,328.0,D
92.0245,328.5,D
92.0245,329.0,D
92.2472,329.5,D
91.2177,330.0,D
88.7639,330.5,D
88.9619,331.0,D
89.3257,331.5,D
87.6901,332.0,D
86.6545,332.5,D
86.462,333.0,D
87.531,333.5,D
87.6069,334.0,D
83.9691,334.5,D
84.213,335.0,D
87.01,335.5,D
85.5312,336.0,D
85.7983,336.5,D
87.2093,337.0,D
87.2093,337.5,D
87.2093,338.0,D
87.2093,338.5,D
87.9091,339.0,D
89.2146,339.5,D
89.8204,340.0,D
90.2907,340.5,D
90.9858,341.0,D
91.7399,341.5,D
93.603,342.0,D
94.6477,342.5,D
94.557,343.0,D
94.9766,343.5,D
95.4782,344.0,D
96.2663,344.5,D
96.7742,345.0,D
96.5583,345.5,D
96.5279,346.0,D
97.1964,346.5,D
98.1818,347.0,D
98.3617,347.5,D
98.54299999999999,348.0,D
99.571,348.5,D
100.383,349.0,D
100.609,349.5,D
100.274,350.0,D
100.33,350.5,D
100.935,351.0,D
101.49,351.5,D
101.465,352.0,D
100.65700000000001,352.5,D
100.413,353.0,D
100.671,353.5,D
100.96,354.0,D
101.3,354.5,D
101.351,355.0,D
101.351,355.5,D
101.31299999999999,356.0,D
100.973,356.5,D
101.62299999999999,357.0,D
102.65700000000001,357.5,D
102.947,358.0,D
102.85600000000001,358.5,D
102.20700000000001,359.0,D
102.68,359.5,D
103.836,360.0,D
103.833,360.5,D
103.20200000000001,361.0,D
102.822,361.5,D
102.89299999999999,362.0,D
103.345,362.5,D
103.949,363.0,D
104.575,363.5,D
104.189,364.0,D
103.759,364.5,D
103.86200000000001,365.0,D
103.569,365.5,D
103.572,366.0,D
104.001,366.5,D
104.601,367.0,D
104.895,367.5,D
104.566,368.0,D
103.932,368.5,D
103.537,369.0,D
103.448,369.5,D
103.163,370.0,D
102.145,370.5,D
101.726,371.0,D
101.726,371.5,D
101.887,372.0,D
102.551,372.5,D
102.74,373.0,D
102.74,373.5,D
102.74,374.0,D
102.74,374.5,D
102.429,375.0,D
102.329,375.5,D
102.639,376.0,D
102.74,376.5,D
102.595,377.0,D
101.90100000000001,377.5,D
101.351,378.0,D
101.066,378.5,D
100.726,379.0,D
100.82600000000001,379.5,D
100.89200000000001,380.0,D
100.071,380.5,D
99.3377,381.0,D
99.3377,381.5,D
99.3377,382.0,D
99.3377,382.5,D
99.3377,383.0,D
99.3222,383.5,D
98.6729,384.0,D
98.0392,384.5,D
97.1457,385.0,D
95.5944,385.5,D
94.8943,386.0,D
94.0097,386.5,D
92.9492,387.0,D
92.795,387.5,D
92.8148,388.0,D
91.8396,388.5,D
90.9091,389.0,D
90.9091,389.5,D
90.969,390.0,D
91.2461,390.5,D
90.9653,391.0,D
90.4143,391.5,D
90.4294,392.0,D
90.7032,392.5,D
89.9107,393.0,D
88.6845,393.5,D
88.4024,394.0,D
88.5527,394.5,D
88.5318,395.0,D
88.2708,395.5,D
88.0892,396.0,D
87.0751,396.5,D
87.3645,397.0,D
88.4804,397.5,D
87.8321,398.0,D
87.4725,398.5,D
86.8919,399.0,D
85.7083,399.5,D
85.5331,400.0,D
87.2429,400.5,D
89.1654,401.0,D
89.6899,401.5,D
89.8204,402.0,D
90.0476,402.5,D
90.6003,403.0,D
91.1391,403.5,D
91.1308,404.0,D
91.15299999999999,404.5,D
91.9142,405.0,D
92.7996,405.5,D
93.1677,406.0,D
93.4565,406.5,D
94.8243,407.0,D
96.1923,407.5,D
96.3871,408.0,D
96.5335,408.5,D
97.3966,409.0,D
98.2742,409.5,D
98.6068,410.0,D
98.6842,410.5,D
98.7208,411.0,D
99.0476,411.5,D
99.3377,412.0,D
99.3377,412.5,D
99.4993,413.0,D
99.9271,413.5,D
100.465,414.0,D
101.044,414.5,D
101.351,415.0,D
101.104,415.5,D
100.764,416.0,D
100.788,416.5,D
101.12799999999999,417.0,D
101.351,417.5,D
101.68799999999999,418.0,D
102.31200000000001,418.5,D
102.89399999999999,419.0,D
103.318,419.5,D
103.338,420.0,D
103.03399999999999,420.5,D
103.145,421.0,D
103.448,421.5,D
103.744,422.0,D
103.86200000000001,422.5,D
103.566,423.0,D
103.575,423.5,D
103.934,424.0,D
104.132,424.5,D
103.419,425.0,D
103.68799999999999,425.5,D
104.49799999999999,426.0,D
104.053,426.5,D
103.904,427.0,D
104.478,427.5,D
104.79700000000001,428.0,D
104.073,428.5,D
103.79899999999999,429.0,D
104.458,429.5,D
104.583,430.0,D
104.28299999999999,430.5,D
104.03200000000001,431.0,D
103.90799999999999,431.5,D
104.71799999999999,432.0,D
104.84200000000001,432.5,D
104.505,433.0,D
104.583,433.5,D
103.794,434.0,D
103.167,434.5,D
103.044,435.0,D
102.62100000000001,435.5,D
102.835,436.0,D
103.105,436.5,D
103.03399999999999,437.0,D
102.927,437.5,D
102.294,438.0,D
101.844,438.5,D
101.191,439.0,D
101.044,439.5,D
101.041,440.0,D
100.946,440.5,D
101.256,441.0,D
101.23200000000001,441.5,D
100.73299999999999,442.0,D
99.5187,442.5,D
98.3798,443.0,D
98.0573,443.5,D
97.7255,444.0,D
97.09299999999999,444.5,D
96.7643,445.0,D
96.1479,445.5,D
95.7741,446.0,D
95.465,446.5,D
94.4742,447.0,D
94.48100000000001,447.5,D
94.0805,448.0,D
94.2113,448.5,D
95.5438,449.0,D
95.7692,449.5,D
95.9015,450.0,D
93.4662,450.5,D
90.57,451.0,D
89.5977,451.5,D
86.7899,452.0,D
84.9518,452.5,D
84.8726,453.0,D
84.1969,453.5,D
84.038,454.0,D
84.2697,454.5,D
84.3097,455.0,D
84.5477,455.5,D
84.9268,456.0,D
85.1676,456.5,D
85.2273,457.0,D
86.1549,457.5,D
87.2887,458.0,D
87.7575,458.5,D
88.6529,459.0,D
89.5124,459.5,D
90.2003,460.0,D
91.0625,460.5,D
91.4634,461.0,D
91.4634,461.5,D
91.625,462.0,D
91.8293,462.5,D
91.6677,463.0,D
91.1973,463.5,D
91.0976,464.0,D
91.3636,464.5,D
91.4214,465.0,D
88.7931,465.5,D
86.2069,466.0,D
86.564,466.5,D
88.1034,467.0,D
86.8496,467.5,D
85.7273,468.0,D
88.6554,468.5,D
88.2382,469.0,D
87.5511,469.5,D
89.3578,470.0,D
89.8398,470.5,D
90.1104,471.0,D
90.3614,471.5,D
90.3614,472.0,D
91.0664,472.5,D
91.0664,473.0,D
91.0664,473.5,D
91.0664,474.0,D
94.1248,474.5,D
94.1248,475.0,D
94.1248,475.5,D
95.1641,476.0,D
95.6183,476.5,D
95.9995,477.0,D
96.1538,477.5,D
97.419,478.0,D
98.4314,478.5,D
98.2895,479.0,D
98.7686,479.5,D
99.5684,480.0,D
100.0,480.5,D
100.0,481.0,D
100.0,481.5,D
99.8199,482.0,D
99.4887,482.5,D
99.2959,483.0,D
98.9692,483.5,D
98.6842,484.0,D
98.9116,484.5,D
98.9116,485.0,D
98.9116,485.5,D
93.7521,486.0,D
92.3333,486.5,D
92.3333,487.0,D
92.3333,487.5,D
92.3333,488.0,D
102.162,488.5,D
101.91799999999999,489.0,D
102.162,489.5,D
102.74,490.0,D
102.449,490.5,D
102.1,491.0,D
102.209,491.5,D
102.449,492.0,D
102.37700000000001,492.5,D
102.84,493.0,D
103.79899999999999,493.5,D
103.28200000000001,494.0,D
102.684,494.5,D
103.376,495.0,D
103.86200000000001,495.5,D
103.75,496.0,D
103.87100000000001,496.5,D
104.167,497.0,D
103.853,497.5,D
103.75,498.0,D
104.06299999999999,498.5,D
104.02,499.0,D
103.75,499.5,D
103.897,500.0,D
104.167,500.5,D
104.167,501.0,D
104.167,501.5,D
104.167,502.0,D
103.991,502.5,D
103.75,503.0,D
103.925,503.5,D
104.167,504.0,D
104.167,504.5,D
104.167,505.0,D
104.167,505.5,D
103.963,506.0,D
103.459,506.5,D
103.03399999999999,507.0,D
103.15100000000001,507.5,D
103.066,508.0,D
102.74,508.5,D
102.74,509.0,D
102.74,509.5,D
102.74,510.0,D
102.911,510.5,D
103.624,511.0,D
104.167,511.5,D
103.83,512.0,D
103.75,512.5,D
103.641,513.0,D
103.17,513.5,D
103.15100000000001,514.0,D
102.98899999999999,514.5,D
102.74,515.0,D
101.74700000000001,515.5,D
99.7019,516.0,D
98.3445,516.5,D
97.7376,517.0,D
96.7728,517.5,D
95.8256,518.0,D
95.7913,518.5,D
95.9236,519.0,D
95.3942,519.5,D
94.3757,520.0,D
94.0542,520.5,D
94.7963,521.0,D
95.2448,521.5,D
95.1592,522.0,D
95.3116,522.5,D
95.2439,523.0,D
94.9415,523.5,D
95.0746,524.0,D
95.3769,524.5,D
95.5414,525.0,D
95.5414,525.5,D
94.527,526.0,D
92.9413,526.5,D
92.2222,527.0,D
92.3336,527.5,D
92.3676,528.0,D
89.6296,528.5,D
89.6296,529.0,D
86.2651,529.5,D
87.59700000000001,530.0,D
84.3232,530.5,D
86.0246,531.0,D
84.7059,531.5,D
81.9415,532.0,D
84.7059,532.5,D
84.1135,533.0,D
83.2941,533.5,D
86.2782,534.0,D
85.6444,534.5,D
85.6236,535.0,D
87.9036,535.5,D
88.0473,536.0,D
88.2467,536.5,D
88.7574,537.0,D
88.9232,537.5,D
89.4547,538.0,D
90.0844,538.5,D
89.8352,539.0,D
89.4402,539.5,D
90.5109,540.0,D
90.655,540.5,D
90.1863,541.0,D
90.6277,541.5,D
90.5455,542.0,D
90.9124,542.5,D
91.8519,543.0,D
91.9791,543.5,D
91.075,544.0,D
90.9477,544.5,D
92.3232,545.0,D
93.4665,545.5,D
93.92200000000001,546.0,D
94.8177,546.5,D
96.1183,547.0,D
96.3057,547.5,D
96.0,548.0,D
96.367,548.5,D
96.402,549.0,D
95.5745,549.5,D
95.598,550.0,D
96.4875,550.5,D
96.8395,551.0,D
97.1537,551.5,D
98.02799999999999,552.0,D
98.9172,552.5,D
99.2593,553.0,D
99.5671,553.5,D
100.18299999999999,554.0,D
100.285,554.5,D
100.319,555.0,D
100.914,555.5,D
101.46799999999999,556.0,D
101.895,556.5,D
102.041,557.0,D
102.041,557.5,D
102.041,558.0,D
101.74,558.5,D
101.633,559.0,D
101.583,559.5,D
101.22399999999999,560.0,D
101.525,560.5,D
101.646,561.0,D
101.682,561.5,D
101.757,562.0,D
101.426,562.5,D
101.351,563.0,D
101.351,563.5,D
101.368,564.0,D
101.713,564.5,D
102.041,565.0,D
102.041,565.5,D
102.40700000000001,566.0,D
102.73299999999999,566.5,D
102.20700000000001,567.0,D
102.568,567.5,D
102.383,568.0,D
102.22399999999999,568.5,D
102.568,569.0,D
101.863,569.5,D
101.973,570.0,D
102.499,570.5,D
102.74,571.0,D
102.74,571.5,D
103.316,572.0,D
104.03,572.5,D
103.807,573.0,D
103.456,573.5,D
104.041,574.0,D
104.056,574.5,D
104.195,575.0,D
103.93799999999999,575.5,D
103.374,576.0,D
103.76299999999999,576.5,D
103.459,577.0,D
102.866,577.5,D
102.351,578.0,D
102.79,578.5,D
102.5,579.0,D
102.20700000000001,579.5,D
102.76100000000001,580.0,D
102.087,580.5,D
100.965,581.0,D
99.8764,581.5,D
99.6636,582.0,D
100.258,582.5,D
100.59899999999999,583.0,D
100.671,583.5,D
100.465,584.0,D
99.471,584.5,D
99.0084,585.0,D
98.8261,585.5,D
96.6544,586.0,D
93.6418,586.5,D
91.87899999999999,587.0,D
90.4268,587.5,D
89.338,588.0,D
89.21600000000001,588.5,D
88.9518,589.0,D
88.7574,589.5,D
88.4667,590.0,D
87.9477,590.5,D
87.7193,591.0,D
87.9319,591.5,D
88.1899,592.0,D
87.9565,592.5,D
85.2753,593.0,D
83.8049,593.5,D
84.9208,594.0,D
84.219,594.5,D
84.1061,595.0,D
85.2529,595.5,D
85.9052,596.0,D
85.4646,596.5,D
85.3336,597.0,D
86.3133,597.5,D
86.7052,598.0,D
86.29299999999999,598.5,D
85.9039,599.0,D
86.161,599.5,D
88.652,600.0,D
89.9465,600.5,D
89.0909,601.0,D
90.0317,601.5,D
90.34299999999999,602.0,D
90.3987,602.5,D
91.1116,603.0,D
91.1382,603.5,D
91.8114,604.0,D
91.9394,604.5,D
91.4815,605.0,D
92.0,605.5,D
91.6162,606.0,D
91.8577,606.5,D
92.5166,607.0,D
92.0497,607.5,D
92.5201,608.0,D
94.0097,608.5,D
94.486,609.0,D
94.1772,609.5,D
94.5425,610.0,D
94.5952,610.5,D
94.8636,611.0,D
95.2782,611.5,D
95.26700000000001,612.0,D
95.5743,612.5,D
94.18799999999999,613.0,D
94.0313,613.5,D
95.81200000000001,614.0,D
96.448,614.5,D
97.3906,615.0,D
98.0392,615.5,D
98.3179,616.0,D
98.8521,616.5,D
99.5161,617.0,D
100.215,617.5,D
100.285,618.0,D
100.708,618.5,D
101.05799999999999,619.0,D
100.946,619.5,D
101.24,620.0,D
101.24799999999999,620.5,D
100.985,621.0,D
101.43299999999999,621.5,D
102.041,622.0,D
101.779,622.5,D
101.633,623.0,D
101.895,623.5,D
102.041,624.0,D
102.075,624.5,D
102.77799999999999,625.0,D
103.448,625.5,D
103.448,626.0,D
103.652,626.5,D
104.163,627.0,D
104.389,627.5,D
103.63600000000001,628.0,D
103.929,628.5,D
104.20100000000001,629.0,D
103.765,629.5,D
103.632,630.0,D
103.333,630.5,D
103.796,631.0,D
104.167,631.5,D
104.167,632.0,D
104.167,632.5,D
103.545,633.0,D
103.333,633.5,D
103.757,634.0,D
103.47,634.5,D
102.955,635.0,D
102.70100000000001,635.5,D
102.007,636.0,D
101.652,636.5,D
101.99700000000001,637.0,D
102.041,637.5,D
101.805,638.0,D
101.12,638.5,D
100.671,639.0,D
100.031,639.5,D
99.3644,640.0,D
99.16,640.5,D
98.9404,641.0,D
99.0789,641.5,D
98.9718,642.0,D
98.6842,642.5,D
98.6842,643.0,D
98.6842,643.5,D
98.7679,644.0,D
99.0946,644.5,D
99.3377,645.0,D
99.0633,645.5,D
98.7365,646.0,D
98.6842,646.5,D
98.6223,647.0,D
98.2998,647.5,D
98.0392,648.0,D
98.2792,648.5,D
98.4314,649.0,D
98.3888,649.5,D
98.8859,650.0,D
99.3377,650.5,D
99.0476,651.0,D
98.9404,651.5,D
99.2306,652.0,D
99.2541,652.5,D
98.9017,653.0,D
98.0178,653.5,D
97.4026,654.0,D
97.2216,654.5,D
97.6764,655.0,D
99.5316,655.5,D
99.0769,656.0,D
96.5464,656.5,D
94.262,657.0,D
93.0832,657.5,D
95.0188,658.0,D
96.4293,658.5,D
94.8638,659.0,D
92.2527,659.5,D
90.4923,660.0,D
91.3228,660.5,D
92.8617,661.0,D
93.1493,661.5,D
93.7052,662.0,D
95.0967,662.5,D
95.1451,663.0,D
94.5904,663.5,D
95.0631,664.0,D
95.4132,664.5,D
95.561,665.0,D
95.8672,665.5,D
95.904,666.0,D
96.4777,666.5,D
97.7724,667.0,D
97.75299999999999,667.5,D
96.7083,668.0,D
97.8154,668.5,D
100.18700000000001,669.0,D
101.29,669.5,D
102.75399999999999,670.0,D
104.801,670.5,D
104.801,671.0,D
104.801,671.5,D
100.723,672.0,D
99.7831,672.5,D
99.0834,673.0,D
99.3709,673.5,D
101.28399999999999,674.0,D
103.085,674.5,D
103.15100000000001,675.0,D
103.03399999999999,675.5,D
102.81200000000001,676.0,D
100.822,676.5,D
96.8919,677.0,D
97.9577,677.5,D
100.49799999999999,678.0,D
100.135,678.5,D
100.98899999999999,679.0,D
101.259,679.5,D
100.946,680.0,D
101.038,680.5,D
103.60600000000001,681.0,D
102.67299999999999,681.5,D
102.67299999999999,682.0,D
102.67299999999999,682.5,D
98.8235,683.0,D
98.62100000000001,683.5,D
98.323,684.0,D
98.4314,684.5,D
97.7328,685.0,D
96.7413,685.5,D
96.5236,686.0,D
96.7742,686.5,D
96.5533,687.0,D
96.2432,687.5,D
95.9579,688.0,D
95.0508,688.5,D
94.6214,689.0,D
94.92,689.5,D
94.5688,690.0,D
93.6843,690.5,D
93.1677,691.0,D
93.4123,691.5,D
93.7034,692.0,D
93.9161,692.5,D
94.4907,693.0,D
93.7459,693.5,D
92.7996,694.0,D
93.0872,694.5,D
93.2096,695.0,D
93.5008,695.5,D
94.2627,696.0,D
94.6769,696.5,D
94.459,697.0,D
94.3068,697.5,D
93.7208,698.0,D
92.7287,698.5,D
92.2889,699.0,D
92.3926,699.5,D
92.2608,700.0,D
92.2699,700.5,D
92.554,701.0,D
92.5153,701.5,D
92.2313,702.0,D
92.2995,702.5,D
92.7767,703.0,D
93.6467,703.5,D
95.1925,704.0,D
95.806,704.5,D
95.5414,705.0,D
95.3527,705.5,D
95.0504,706.0,D
94.9657,706.5,D
95.2681,707.0,D
95.2874,707.5,D
95.1592,708.0,D
95.3165,708.5,D
95.0767,709.0,D
93.699,709.5,D
92.5926,710.0,D
92.5926,710.5,D
92.5926,711.0,D
92.5926,711.5,D
92.5926,712.0,D
92.9259,712.5,D
93.5046,713.0,D
93.7595,713.5,D
94.3528,714.0,D
94.9367,714.5,D
94.6472,715.0,D
94.1151,715.5,D
94.1061,716.0,D
94.0637,716.5,D
94.3564,717.0,D
95.1123,717.5,D
95.2858,718.0,D
96.3373,718.5,D
97.6903,719.0,D
98.228,719.5,D
98.7326,720.0,D
99.1626,720.5,D
99.3536,721.0,D
99.6848,721.5,D
100.285,722.0,D
100.84299999999999,722.5,D
101.234,723.0,D
101.351,723.5,D
101.387,724.0,D
101.73200000000001,724.5,D
101.73200000000001,725.0,D
101.73200000000001,725.5,D
101.73200000000001,726.0,D
103.162,726.5,D
103.616,727.0,D
101.588,727.5,D
103.001,728.0,D
104.537,728.5,D
104.895,729.0,D
104.368,729.5,D
104.056,730.0,D
104.583,730.5,D
104.79299999999999,731.0,D
104.429,731.5,D
104.167,732.0,D
104.167,732.5,D
104.167,733.0,D
103.925,733.5,D
103.566,734.0,D
103.448,734.5,D
103.51700000000001,735.0,D
103.876,735.5,D
104.167,736.0,D
103.848,736.5,D
103.23100000000001,737.0,D
103.03399999999999,737.5,D
103.01100000000001,738.0,D
102.541,738.5,D
102.449,739.0,D
102.37100000000001,739.5,D
102.041,740.0,D
102.287,740.5,D
102.449,741.0,D
102.079,741.5,D
101.633,742.0,D
101.757,742.5,D
101.696,743.0,D
101.074,743.5,D
100.734,744.0,D
100.818,744.5,D
100.90799999999999,745.0,D
100.095,745.5,D
99.3377,746.0,D
99.0659,746.5,D
98.9404,747.0,D
99.3474,747.5,D
99.7351,748.0,D
99.6,748.5,D
99.6689,749.0,D
99.7351,749.5,D
99.2105,750.0,D
98.9404,750.5,D
99.0789,751.0,D
98.9561,751.5,D
98.0742,752.0,D
97.2071,752.5,D
96.8622,753.0,D
96.3414,753.5,D
94.5382,754.0,D
93.1677,754.5,D
93.5568,755.0,D
93.363,755.5,D
91.5708,756.0,D
90.3614,756.5,D
90.9735,757.0,D
90.5484,757.5,D
87.9642,758.0,D
88.9403,758.5,D
91.6677,759.0,D
91.7118,759.5,D
91.2303,760.0,D
90.9091,760.5,D
91.3463,761.0,D
91.12,761.5,D
89.6069,762.0,D
88.7574,762.5,D
89.5923,763.0,D
89.596,763.5,D
87.6902,764.0,D
89.6041,764.5,D
90.9194,765.0,D
89.74700000000001,765.5,D
91.4431,766.0,D
90.6979,766.5,D
90.012,767.0,D
91.2597,767.5,D
91.0376,768.0,D
92.2861,768.5,D
93.75,769.0,D
93.75,769.5,D
93.9256,770.0,D
94.5287,770.5,D
95.2487,771.0,D
96.0197,771.5,D
96.6361,772.0,D
96.6824,772.5,D
96.4022,773.0,D
96.8082,773.5,D
97.4026,774.0,D
97.5885,774.5,D
98.0229,775.0,D
98.4778,775.5,D
98.6842,776.0,D
98.0895,776.5,D
97.6703,777.0,D
98.2489,777.5,D
98.9087,778.0,D
98.9563,778.5,D
99.3737,779.0,D
100.285,779.5,D
100.84299999999999,780.0,D
101.234,780.5,D
101.351,781.0,D
101.351,781.5,D
101.351,782.0,D
101.351,782.5,D
101.351,783.0,D
101.351,783.5,D
101.478,784.0,D
101.691,784.5,D
101.22399999999999,785.0,D
101.35600000000001,785.5,D
102.329,786.0,D
102.449,786.5,D
102.329,787.0,D
102.449,787.5,D
102.329,788.0,D
102.43799999999999,788.5,D
102.40100000000001,789.0,D
102.329,789.5,D
102.449,790.0,D
102.648,790.5,D
103.47399999999999,791.0,D
103.605,791.5,D
102.649,792.0,D
102.376,792.5,D
103.006,793.0,D
103.375,793.5,D
103.116,794.0,D
102.516,794.5,D
102.405,795.0,D
101.95700000000001,795.5,D
102.007,796.0,D
101.898,796.5,D
101.101,797.0,D
100.807,797.5,D
100.005,798.0,D
99.7325,798.5,D
99.3474,799.0,D
99.2,799.5,D
99.2879,800.0,D
98.8,800.5,D
99.2647,801.0,D
99.2421,801.5,D
96.9304,802.0,D
94.4622,802.5,D
93.4578,803.0,D
93.0859,803.5,D
92.2338,804.0,D
90.6098,804.5,D
89.5209,805.0,D
89.3114,805.5,D
89.5787,806.0,D
90.4447,806.5,D
89.8694,807.0,D
87.0296,807.5,D
87.3377,808.0,D
88.3877,808.5,D
87.6678,809.0,D
89.1037,809.5,D
87.8354,810.0,D
86.4372,810.5,D
87.8435,811.0,D
86.1958,811.5,D
86.7307,812.0,D
88.5444,812.5,D
86.8069,813.0,D
88.8706,813.5,D
89.9819,814.0,D
88.7881,814.5,D
91.7052,815.0,D
91.5296,815.5,D
91.4557,816.0,D
93.1282,816.5,D
92.0058,817.0,D
93.7674,817.5,D
93.9775,818.0,D
93.26799999999999,818.5,D
94.7561,819.0,D
93.2903,819.5,D
94.2887,820.0,D
95.7712,820.5,D
93.76,821.0,D
92.59700000000001,821.5,D
93.9918,822.0,D
94.0906,822.5,D
92.4208,823.0,D
91.4859,823.5,D
89.853,824.0,D
91.6378,824.5,D
93.036,825.0,D
92.2068,825.5,D
93.5033,826.0,D
92.8944,826.5,D
93.2251,827.0,D
93.8559,827.5,D
92.4841,828.0,D
93.8923,828.5,D
95.5414,829.0,D
95.3068,829.5,D
95.6357,830.0,D
96.4557,830.5,D
95.8342,831.0,D
95.555,831.5,D
95.2308,832.0,D
94.6154,832.5,D
95.1801,833.0,D
94.3024,833.5,D
95.1835,834.0,D
95.986,834.5,D
95.0649,835.0,D
96.3145,835.5,D
97.023,836.0,D
97.6986,836.5,D
98.6537,837.0,D
98.8594,837.5,D
99.2947,838.0,D
99.7775,838.5,D
100.0,839.0,D
100.62700000000001,839.5,D
101.05,840.0,D
100.946,840.5,D
100.95,841.0,D
100.48299999999999,841.5,D
100.39200000000001,842.0,D
101.34,842.5,D
102.024,843.0,D
101.82600000000001,843.5,D
101.786,844.0,D
102.256,844.5,D
102.262,845.0,D
101.663,845.5,D
101.666,846.0,D
102.01,846.5,D
101.848,847.0,D
101.50299999999999,847.5,D
101.22200000000001,848.0,D
100.546,848.5,D
100.333,849.0,D
100.66799999999999,849.5,D
100.671,850.0,D
100.39399999999999,850.5,D
99.9365,851.0,D
100.546,851.5,D
101.00299999999999,852.0,D
100.116,852.5,D
99.6564,853.0,D
99.5965,853.5,D
98.9961,854.0,D
98.2946,854.5,D
98.0392,855.0,D
97.5585,855.5,D
96.926,856.0,D
96.4334,856.5,D
95.2161,857.0,D
94.3396,857.5,D
94.3396,858.0,D
94.3396,858.5,D
94.3396,859.0,D
94.3396,859.5,D
88.2574,860.0,D
86.3564,860.5,D
86.3564,861.0,D
86.3564,861.5,D
86.9941,862.0,D
82.0202,862.5,D
87.9581,863.0,D
85.3241,863.5,D
80.8937,864.0,D
84.7166,864.5,D
83.6304,865.0,D
85.64200000000001,865.5,D
89.1566,866.0,D
83.7376,866.5,D
86.9536,867.0,D
90.5487,867.5,D
85.0047,868.0,D
87.7394,868.5,D
89.0337,869.0,D
85.6351,869.5,D
85.5968,870.0,D
91.3702,870.5,D
98.1032,871.0,D
94.8083,871.5,D
88.6039,872.0,D
92.5314,872.5,D
94.2925,873.0,D
90.631,873.5,D
91.2786,874.0,D
92.5679,874.5,D
88.7823,875.0,D
85.8347,875.5,D
88.4175,876.0,D
89.6279,876.5,D
89.3186,877.0,D
88.9435,877.5,D
89.5176,878.0,D
90.9947,878.5,D
89.2786,879.0,D
87.9755,879.5,D
90.3163,880.0,D
89.9858,880.5,D
90.4756,881.0,D
92.5657,881.5,D
92.963,882.0,D
92.7683,882.5,D
91.1843,883.0,D
91.7655,883.5,D
94.4978,884.0,D
95.1592,884.5,D
95.2874,885.0,D
95.5414,885.5,D
95.5414,886.0,D
95.0762,886.5,D
94.2101,887.0,D
96.5736,887.5,D
97.9114,888.0,D
96.12100000000001,888.5,D
95.7692,889.0,D
96.0123,889.5,D
96.5087,890.0,D
96.7742,890.5,D
97.4083,891.0,D
98.0762,891.5,D
97.7563,892.0,D
97.4026,892.5,D
97.7158,893.0,D
98.0341,893.5,D
97.7002,894.0,D
97.0677,894.5,D
96.8096,895.0,D
97.4421,895.5,D
98.3075,896.0,D
98.63,896.5,D
98.6842,897.0,D
98.6842,897.5,D
98.6842,898.0,D
99.0005,898.5,D
99.3273,899.0,D
99.5205,899.5,D
