id,smoker
0,yes
11,yes
14,yes
19,yes
23,yes
29,yes
30,yes
34,yes
38,yes
39,yes
49,yes
52,yes
53,yes
55,yes
57,yes
58,yes
64,yes
69,yes
70,yes
82,yes
84,yes
85,yes
86,yes
92,yes
94,yes
98,yes
99,yes
103,yes
105,yes
109,yes
117,yes
123,yes
126,yes
128,yes
142,yes
144,yes
146,yes
153,yes
156,yes
157,yes
158,yes
160,yes
161,yes
175,yes
185,yes
203,yes
207,yes
223,yes
224,yes
235,yes
238,yes
240,yes
244,yes
250,yes
251,yes
252,yes
254,yes
256,yes
259,yes
261,yes
262,yes
263,yes
265,yes
266,yes
271,yes
280,yes
281,yes
288,yes
292,yes
296,yes
297,yes
298,yes
301,yes
312,yes
314,yes
322,yes
327,yes
328,yes
330,yes
331,yes
338,yes
362,yes
373,yes
375,yes
376,yes
377,yes
380,yes
381,yes
411,yes
412,yes
417,yes
419,yes
420,yes
421,yes
422,yes
441,yes
444,yes
461,yes
465,yes
474,yes
475,yes
476,yes
488,yes
494,yes
500,yes
502,yes
503,yes
514,yes
524,yes
530,yes
543,yes
545,yes
549,yes
558,yes
569,yes
577,yes
587,yes
593,yes
604,yes
607,yes
609,yes
615,yes
617,yes
618,yes
621,yes
623,yes
629,yes
638,yes
641,yes
655,yes
664,yes
665,yes
667,yes
668,yes
674,yes
677,yes
682,yes
689,yes
697,yes
706,yes
725,yes
727,yes
730,yes
736,yes
738,yes
739,yes
741,yes
742,yes
750,yes
757,yes
759,yes
762,yes
773,yes
780,yes
783,yes
793,yes
795,yes
799,yes
803,yes
818,yes
819,yes
826,yes
827,yes
828,yes
842,yes
843,yes
845,yes
850,yes
852,yes
854,yes
856,yes
857,yes
860,yes
883,yes
885,yes
886,yes
890,yes
893,yes
896,yes
901,yes
909,yes
911,yes
916,yes
917,yes
947,yes
949,yes
951,yes
953,yes
954,yes
956,yes
958,yes
966,yes
975,yes
982,yes
989,yes
994,yes
1000,yes
1001,yes
1007,yes
1011,yes
1021,yes
1022,yes
1026,yes
1030,yes
1031,yes
1033,yes
1036,yes
1037,yes
1040,yes
1042,yes
1045,yes
1047,yes
1049,yes
1053,yes
1062,yes
1070,yes
1078,yes
1085,yes
1090,yes
1093,yes
1096,yes
1100,yes
1111,yes
1112,yes
1117,yes
1118,yes
1120,yes
1122,yes
1124,yes
1139,yes
1146,yes
1152,yes
1156,yes
1170,yes
1171,yes
1176,yes
1179,yes
1184,yes
1186,yes
1188,yes
1196,yes
1204,yes
1207,yes
1208,yes
1218,yes
1223,yes
1230,yes
1231,yes
1240,yes
1241,yes
1249,yes
1250,yes
1252,yes
1265,yes
1267,yes
1274,yes
1278,yes
1281,yes
1282,yes
1284,yes
1288,yes
1291,yes
1300,yes
1301,yes
1303,yes
1304,yes
1306,yes
1307,yes
1308,yes
1313,yes
1314,yes
1321,yes
1323,yes
1337,yes
